rv32i_tb.vcd
$date
	Sat Nov 16 15:55:43 2024
$end
$version
	Icarus Verilog
$end
$timescale
	1ps
$end
$scope module rv32i_tb $end
$var wire 32 ! pc [31:0] $end
$var reg 1 " clk $end
$var reg 1 # reset $end
$scope module uut $end
$var wire 1 " clk $end
$var wire 1 # reset $end
$var wire 1 $ zero $end
$var wire 32 % writeData [31:0] $end
$var wire 2 & resSrc [1:0] $end
$var wire 1 ' regWrite $end
$var wire 1 ( pcSrc $end
$var wire 32 ) pc [31:0] $end
$var wire 1 * memWrite $end
$var wire 32 + instruction [31:0] $end
$var wire 2 , inmSrc [1:0] $end
$var wire 1 - branch $end
$var wire 1 . aluSrc $end
$var wire 3 / ALUcontrol [2:0] $end
$scope module control_unit $end
$var wire 1 . aluSrc $end
$var wire 1 - branch $end
$var wire 3 0 funct3 [2:0] $end
$var wire 1 1 funct7 $end
$var wire 2 2 immSrc [1:0] $end
$var wire 1 * memWrite $end
$var wire 7 3 op [6:0] $end
$var wire 1 ( pcSrc $end
$var wire 1 ' regWrite $end
$var wire 2 4 resultSrc [1:0] $end
$var wire 1 $ zero $end
$var wire 2 5 resultSrc_int [1:0] $end
$var wire 1 6 regWrite_int $end
$var wire 1 7 memWrite_int $end
$var wire 1 8 jump_int $end
$var wire 2 9 immSrc_int [1:0] $end
$var wire 1 : branch_int $end
$var wire 1 ; aluSrc_int $end
$var wire 2 < aluOp [1:0] $end
$var wire 3 = ALUcontrol [2:0] $end
$scope module alu_decoder $end
$var wire 3 > funct3 [2:0] $end
$var wire 1 1 funct7 $end
$var wire 1 ? opcode $end
$var wire 2 @ op [1:0] $end
$var reg 3 A ALUControl [2:0] $end
$var reg 2 B aux [1:0] $end
$upscope $end
$scope module main_decoder $end
$var wire 7 C op [6:0] $end
$var reg 2 D aluOp [1:0] $end
$var reg 1 ; aluSrc $end
$var reg 1 : branch $end
$var reg 2 E immSrc [1:0] $end
$var reg 1 8 jump $end
$var reg 1 7 memWrite $end
$var reg 1 6 regWrite $end
$var reg 2 F resultSrc [1:0] $end
$upscope $end
$upscope $end
$scope module data_path $end
$var wire 3 G ALUcontrol [2:0] $end
$var wire 1 . aluSrc $end
$var wire 1 " clk $end
$var wire 2 H immSrc [1:0] $end
$var wire 1 * memWrite $end
$var wire 1 ( pcSrc $end
$var wire 1 ' regWrite $end
$var wire 1 # reset $end
$var wire 2 I resultSrc [1:0] $end
$var wire 32 J writeData [31:0] $end
$var wire 1 $ zero $end
$var wire 32 K srcb [31:0] $end
$var wire 32 L result [31:0] $end
$var wire 32 M readData [31:0] $end
$var wire 32 N rd2 [31:0] $end
$var wire 32 O rd1 [31:0] $end
$var wire 32 P pcTarget [31:0] $end
$var wire 32 Q pcPlus4 [31:0] $end
$var wire 32 R pcNext [31:0] $end
$var wire 32 S pc [31:0] $end
$var wire 32 T instruction [31:0] $end
$var wire 32 U immExt [31:0] $end
$var wire 32 V aluResult [31:0] $end
$scope module alu $end
$var wire 3 W ALUControl [2:0] $end
$var wire 32 X srcB [31:0] $end
$var wire 32 Y srcA [31:0] $end
$var reg 32 Z ALUResult [31:0] $end
$var reg 1 $ zero $end
$upscope $end
$scope module alu_src_mux $end
$var wire 1 . sel $end
$var wire 32 [ salMux [31:0] $end
$var wire 32 \ e2 [31:0] $end
$var wire 32 ] e1 [31:0] $end
$upscope $end
$scope module branch_adder $end
$var wire 32 ^ res [31:0] $end
$var wire 32 _ op2 [31:0] $end
$var wire 32 ` op1 [31:0] $end
$upscope $end
$scope module data_memory $end
$var wire 5 a a [4:0] $end
$var wire 1 " clk $end
$var wire 1 * we $end
$var wire 32 b wd [31:0] $end
$var reg 32 c rd [31:0] $end
$upscope $end
$scope module instructionMemory $end
$var wire 32 d readData [31:0] $end
$var wire 32 e address [31:0] $end
$upscope $end
$scope module pc_increment $end
$var wire 32 f op2 [31:0] $end
$var wire 32 g res [31:0] $end
$var wire 32 h op1 [31:0] $end
$upscope $end
$scope module pc_mux $end
$var wire 32 i e1 [31:0] $end
$var wire 32 j e2 [31:0] $end
$var wire 1 ( sel $end
$var wire 32 k salMux [31:0] $end
$upscope $end
$scope module pc_reg $end
$var wire 1 " clk $end
$var wire 32 l pcNext [31:0] $end
$var wire 1 # reset $end
$var reg 32 m pc [31:0] $end
$upscope $end
$scope module regFile $end
$var wire 5 n a1 [4:0] $end
$var wire 5 o a2 [4:0] $end
$var wire 5 p a3 [4:0] $end
$var wire 1 " clk $end
$var wire 32 q rd1 [31:0] $end
$var wire 32 r rd2 [31:0] $end
$var wire 1 ' we3 $end
$var wire 32 s wd3 [31:0] $end
$var integer 32 t i [31:0] $end
$upscope $end
$scope module result_mux $end
$var wire 32 u e1 [31:0] $end
$var wire 32 v e2 [31:0] $end
$var wire 32 w e3 [31:0] $end
$var wire 2 x sel [1:0] $end
$var wire 32 y sal [31:0] $end
$upscope $end
$scope module sign_ext $end
$var wire 32 z immExt [31:0] $end
$var wire 2 { immSrc [1:0] $end
$var wire 25 | inm [24:0] $end
$var reg 32 } aux [31:0] $end
$upscope $end
$upscope $end
$upscope $end
$upscope $end
$enddefinitions $end
$comment Show the parameter values. $end
$dumpall
$end
#0
$dumpvars
b11 }
b110000000001000 |
b0 {
b11 z
b11 y
b0 x
b100 w
bx v
b11 u
b100000 t
b11 s
b0 r
b0 q
b1000 p
b11 o
b0 n
b0 m
b100 l
b100 k
b11 j
b100 i
b0 h
b100 g
b100 f
b0 e
b1100000000010000010011 d
bx c
b0 b
b11 a
b0 `
b11 _
b11 ^
b0 ]
b11 \
b11 [
b11 Z
b0 Y
b11 X
b0 W
b11 V
b11 U
b1100000000010000010011 T
b0 S
b100 R
b100 Q
b11 P
b0 O
b0 N
bx M
b11 L
b11 K
b0 J
b0 I
b0 H
b0 G
b0 F
b0 E
b10 D
b10011 C
b10 B
b0 A
b10 @
1?
b0 >
b0 =
b10 <
1;
0:
b0 9
08
07
16
b0 5
b0 4
b10011 3
b0 2
01
b0 0
b0 /
1.
0-
b0 ,
b1100000000010000010011 +
0*
b0 )
0(
1'
b0 &
b0 %
0$
1#
0"
b0 !
$end
#5
1"
#10
0"
0#
#15
b1 L
b1 s
b1 y
b1 a
b1 V
b1 Z
b1 u
b1 K
b1 X
b1 [
b1 U
b1 \
b1 _
b1 z
b1 }
b1000 R
b1000 k
b1000 l
b10000000001001 |
b1001 p
b1 o
b1000 Q
b1000 g
b1000 i
b1000 w
b100000000010010010011 +
b100000000010010010011 T
b100000000010010010011 d
b101 P
b101 ^
b101 j
b100 !
b100 )
b100 S
b100 `
b100 e
b100 h
b100 m
1"
#20
0"
#25
b10000 L
b10000 s
b10000 y
b10000 a
b10000 V
b10000 Z
b10000 u
b10000 K
b10000 X
b10000 [
b10000 U
b10000 \
b10000 _
b10000 z
b10000 }
b1100 R
b1100 k
b1100 l
b100000000000010010 |
b10010 p
b10000 o
b1100 Q
b1100 g
b1100 i
b1100 w
b1000000000000100100010011 +
b1000000000000100100010011 T
b1000000000000100100010011 d
b11000 P
b11000 ^
b11000 j
b1000 !
b1000 )
b1000 S
b1000 `
b1000 e
b1000 h
b1000 m
1"
#30
0"
#35
0.
0;
b1 K
b1 X
b1 [
b11 L
b11 s
b11 y
b11 a
b1001 U
b1001 \
b1001 _
b1001 z
b1001 }
b11 V
b11 Z
b11 u
b11 /
b11 =
b11 A
b11 G
b11 W
b10000 R
b10000 k
b10000 l
b10010100011000101 |
b101 p
b1 %
b1 J
b1 N
b1 ]
b1 b
b1 r
b1001 o
b11 O
b11 Y
b11 q
b1000 n
b110 0
b110 >
b110011 3
b110011 C
b10000 Q
b10000 g
b10000 i
b10000 w
b100101000110001010110011 +
b100101000110001010110011 T
b100101000110001010110011 d
b10101 P
b10101 ^
b10101 j
b1100 !
b1100 )
b1100 S
b1100 `
b1100 e
b1100 h
b1100 m
1"
#40
0"
#45
b1 L
b1 s
b1 y
b1 a
b1 V
b1 Z
b1 u
b10 /
b10 =
b10 A
b10 G
b10 W
b10100 R
b10100 k
b10100 l
b10010100011100110 |
b110 p
b111 0
b111 >
b10100 Q
b10100 g
b10100 i
b10100 w
b100101000111001100110011 +
b100101000111001100110011 T
b100101000111001100110011 d
b11001 P
b11001 ^
b11001 j
b10000 !
b10000 )
b10000 S
b10000 `
b10000 e
b10000 h
b10000 m
1"
#50
0"
#55
b100 L
b100 s
b100 y
b100 a
b100 V
b100 Z
b100 u
b0 /
b0 =
b0 A
b0 G
b0 W
b11000 R
b11000 k
b11000 l
b10010100000000111 |
b111 p
b0 0
b0 >
b11000 Q
b11000 g
b11000 i
b11000 w
b100101000000001110110011 +
b100101000000001110110011 T
b100101000000001110110011 d
b11101 P
b11101 ^
b11101 j
b10100 !
b10100 )
b10100 S
b10100 `
b10100 e
b10100 h
b10100 m
1"
#60
0"
#65
b10 L
b10 s
b10 y
b10 a
b10 V
b10 Z
b10 u
b10000001001 U
b10000001001 \
b10000001001 _
b10000001001 z
b10000001001 }
b1 /
b1 =
b1 A
b1 G
b1 W
b11 B
b11100 R
b11100 k
b11100 l
b100000010010100000011100 |
b11100 p
11
b11100 Q
b11100 g
b11100 i
b11100 w
b1000000100101000000111000110011 +
b1000000100101000000111000110011 T
b1000000100101000000111000110011 d
b10000100001 P
b10000100001 ^
b10000100001 j
b11000 !
b11000 )
b11000 S
b11000 `
b11000 e
b11000 h
b11000 m
1"
#70
0"
#75
b11111111111111111111111111111110 L
b11111111111111111111111111111110 s
b11111111111111111111111111111110 y
b11110 a
b10000001000 U
b10000001000 \
b10000001000 _
b10000001000 z
b10000001000 }
b11 K
b11 X
b11 [
0$
b11111111111111111111111111111110 V
b11111111111111111111111111111110 Z
b11111111111111111111111111111110 u
b100000 R
b100000 k
b100000 l
b100000010000100100011101 |
b11101 p
b11 %
b11 J
b11 N
b11 ]
b11 b
b11 r
b1000 o
b1 O
b1 Y
b1 q
b1001 n
b100000 Q
b100000 g
b100000 i
b100000 w
b1000000100001001000111010110011 +
b1000000100001001000111010110011 T
b1000000100001001000111010110011 d
b10000100100 P
b10000100100 ^
b10000100100 j
b11100 !
b11100 )
b11100 S
b11100 `
b11100 e
b11100 h
b11100 m
1"
#80
0"
#85
b0 L
b0 s
b0 y
b0 a
b1001 U
b1001 \
b1001 _
b1001 z
b1001 }
b1 K
b1 X
b1 [
1$
b0 V
b0 Z
b0 u
b101 /
b101 =
b101 A
b101 G
b101 W
b10 B
b100100 R
b100100 k
b100100 l
b10010100001011110 |
b11110 p
b1 %
b1 J
b1 N
b1 ]
b1 b
b1 r
b1001 o
b11 O
b11 Y
b11 q
b1000 n
01
b10 0
b10 >
b100100 Q
b100100 g
b100100 i
b100100 w
b100101000010111100110011 +
b100101000010111100110011 T
b100101000010111100110011 d
b101001 P
b101001 ^
b101001 j
b100000 !
b100000 )
b100000 S
b100000 `
b100000 e
b100000 h
b100000 m
1"
#90
0"
#95
b1000 U
b1000 \
b1000 _
b1000 z
b1000 }
b11 K
b11 X
b11 [
b101000 R
b101000 k
b101000 l
b10000100101011111 |
b11111 p
b11 %
b11 J
b11 N
b11 ]
b11 b
b11 r
b1000 o
b1 O
b1 Y
b1 q
b1001 n
b101000 Q
b101000 g
b101000 i
b101000 w
b100001001010111110110011 +
b100001001010111110110011 T
b100001001010111110110011 d
b101100 P
b101100 ^
b101100 j
b100100 !
b100100 )
b100100 S
b100100 `
b100100 e
b100100 h
b100100 m
1"
#100
0"
#105
b11101 U
b11101 \
b11101 _
b11101 z
b11101 }
b11111111111111111111111111111110 K
b11111111111111111111111111111110 X
b11111111111111111111111111111110 [
b101100 R
b101100 k
b101100 l
b111010100101011111 |
b11111111111111111111111111111110 %
b11111111111111111111111111111110 J
b11111111111111111111111111111110 N
b11111111111111111111111111111110 ]
b11111111111111111111111111111110 b
b11111111111111111111111111111110 r
b11101 o
b101100 Q
b101100 g
b101100 i
b101100 w
b1110101001010111110110011 +
b1110101001010111110110011 T
b1110101001010111110110011 d
b1000101 P
b1000101 ^
b1000101 j
b101000 !
b101000 )
b101000 S
b101000 `
b101000 e
b101000 h
b101000 m
1"
#110
0"
#115
1.
1;
b1 L
b1 s
b1 y
b1 a
b1 U
b1 \
b1 _
b1 z
b1 }
b1 K
b1 X
b1 [
0$
b1 V
b1 Z
b1 u
b0 /
b0 =
b0 A
b0 G
b0 W
b110000 R
b110000 k
b110000 l
b10000000000101 |
b101 p
b0 %
b0 J
b0 N
b0 ]
b0 b
b0 r
b1 o
b0 O
b0 Y
b0 q
b0 n
b0 0
b0 >
b10011 3
b10011 C
b110000 Q
b110000 g
b110000 i
b110000 w
b100000000001010010011 +
b100000000001010010011 T
b100000000001010010011 d
b101101 P
b101101 ^
b101101 j
b101100 !
b101100 )
b101100 S
b101100 `
b101100 e
b101100 h
b101100 m
1"
#120
0"
#125
b0 L
b0 s
b0 y
b0 a
1$
b0 V
b0 Z
b0 u
b0 K
b0 X
b0 [
b0 U
b0 \
b0 _
b0 z
b0 }
b110100 R
b110100 k
b110100 l
b110 |
b110 p
b0 o
b110100 Q
b110100 g
b110100 i
b110100 w
b1100010011 +
b1100010011 T
b1100010011 d
b110000 P
b110000 ^
b110000 j
b110000 !
b110000 )
b110000 S
b110000 `
b110000 e
b110000 h
b110000 m
1"
#130
0"
#135
b1 /
b1 =
b1 A
b1 G
b1 W
b1 <
b1 @
b1 D
1-
1:
0.
0;
b10 ,
b10 2
b10 H
b10 {
b10 9
b10 E
0'
06
b10000 K
b10000 X
b10000 [
b11111111111111111111111111110001 L
b11111111111111111111111111110001 s
b11111111111111111111111111110001 y
b10001 a
b10000 U
b10000 \
b10000 _
b10000 z
b10000 }
0$
b11111111111111111111111111110001 V
b11111111111111111111111111110001 Z
b11111111111111111111111111110001 u
b111000 R
b111000 k
b111000 l
b100100010100010000 |
b10000 p
b10000 %
b10000 J
b10000 N
b10000 ]
b10000 b
b10000 r
b10010 o
b1 O
b1 Y
b1 q
b101 n
b1100011 3
b1100011 C
b111000 Q
b111000 g
b111000 i
b111000 w
b1001000101000100001100011 +
b1001000101000100001100011 T
b1001000101000100001100011 d
b1000100 P
b1000100 ^
b1000100 j
b110100 !
b110100 )
b110100 S
b110100 `
b110100 e
b110100 h
b110100 m
1"
#140
0"
#145
b0 /
b0 =
b0 A
b0 G
b0 W
b10 <
b10 @
b10 D
0-
0:
1'
16
0(
b10 L
b10 s
b10 y
b10 a
0$
b10 V
b10 Z
b10 u
b100000000100 U
b100000000100 \
b100000000100 _
b100000000100 z
b100000000100 }
b1 K
b1 X
b1 [
b111100 R
b111100 k
b111100 l
b1010010100000101 |
b101 p
b1 %
b1 J
b1 N
b1 ]
b1 b
b1 r
b101 o
b110011 3
b110011 C
b111100 Q
b111100 g
b111100 i
b111100 w
b10100101000001010110011 +
b10100101000001010110011 T
b10100101000001010110011 d
b100000111100 P
b100000111100 ^
b100000111100 j
b111000 !
b111000 )
b111000 S
b111000 `
b111000 e
b111000 h
b111000 m
1"
#150
0"
#155
1.
1;
b0 ,
b0 2
b0 H
b0 {
b0 9
b0 E
b1 L
b1 s
b1 y
b1 a
b1 U
b1 \
b1 _
b1 z
b1 }
0$
b1 V
b1 Z
b1 u
b1 K
b1 X
b1 [
b1000000 R
b1000000 k
b1000000 l
b10011000000110 |
b110 p
b1 o
b110 n
b10011 3
b10011 C
b0 O
b0 Y
b0 q
b0 %
b0 J
b0 N
b0 ]
b0 b
b0 r
b1000000 Q
b1000000 g
b1000000 i
b1000000 w
b100110000001100010011 +
b100110000001100010011 T
b100110000001100010011 d
b111101 P
b111101 ^
b111101 j
b111100 !
b111100 )
b111100 S
b111100 `
b111100 e
b111100 h
b111100 m
1"
#160
0"
#165
1(
18
b10 &
b10 4
b10 I
b10 x
b10 5
b10 F
b11 ,
b11 2
b11 H
b11 {
b11 9
b11 E
b1000100 L
b1000100 s
b1000100 y
b0 a
b11111111111111111111111111110100 K
b11111111111111111111111111110100 X
b11111111111111111111111111110100 [
1$
b0 V
b0 Z
b0 u
b11111111111111111111111111110100 U
b11111111111111111111111111110100 \
b11111111111111111111111111110100 _
b11111111111111111111111111110100 z
b11111111111111111111111111110100 }
b10 /
b10 =
b10 A
b10 G
b10 W
b11 B
b110100 R
b110100 k
b110100 l
b1111111101011111111100000 |
b0 p
b10101 o
b11111 n
11
b111 0
b111 >
b1101111 3
b1101111 C
b0 O
b0 Y
b0 q
b1000100 Q
b1000100 g
b1000100 i
b1000100 w
b11111111010111111111000001101111 +
b11111111010111111111000001101111 T
b11111111010111111111000001101111 d
b110100 P
b110100 ^
b110100 j
b1000000 !
b1000000 )
b1000000 S
b1000000 `
b1000000 e
b1000000 h
b1000000 m
1"
#170
0"
#175
0(
08
b1 <
b1 @
b1 D
1-
1:
0.
0;
b10 ,
b10 2
b10 H
b10 {
b10 9
b10 E
0'
06
b111000 L
b111000 s
b111000 y
b10000 K
b10000 X
b10000 [
b10010 a
b10000 U
b10000 \
b10000 _
b10000 z
b10000 }
0$
b11111111111111111111111111110010 V
b11111111111111111111111111110010 Z
b11111111111111111111111111110010 u
b1 /
b1 =
b1 A
b1 G
b1 W
b10 B
b100100010100010000 |
b10000 p
b10000 %
b10000 J
b10000 N
b10000 ]
b10000 b
b10000 r
b10010 o
b10 O
b10 Y
b10 q
b101 n
01
b0 0
b0 >
b1100011 3
b1100011 C
b111000 R
b111000 k
b111000 l
b111000 Q
b111000 g
b111000 i
b111000 w
b1001000101000100001100011 +
b1001000101000100001100011 T
b1001000101000100001100011 d
b1000100 P
b1000100 ^
b1000100 j
b110100 !
b110100 )
b110100 S
b110100 `
b110100 e
b110100 h
b110100 m
1"
#180
0"
#185
b0 /
b0 =
b0 A
b0 G
b0 W
b10 <
b10 @
b10 D
0-
0:
b0 &
b0 4
b0 I
b0 x
b0 5
b0 F
1'
16
0(
b100 a
b100 L
b100 s
b100 y
0$
b100 V
b100 Z
b100 u
b100000000100 U
b100000000100 \
b100000000100 _
b100000000100 z
b100000000100 }
b10 K
b10 X
b10 [
b111100 R
b111100 k
b111100 l
b1010010100000101 |
b101 p
b10 %
b10 J
b10 N
b10 ]
b10 b
b10 r
b101 o
b110011 3
b110011 C
b111100 Q
b111100 g
b111100 i
b111100 w
b10100101000001010110011 +
b10100101000001010110011 T
b10100101000001010110011 d
b100000111100 P
b100000111100 ^
b100000111100 j
b111000 !
b111000 )
b111000 S
b111000 `
b111000 e
b111000 h
b111000 m
1"
#190
0"
#195
1.
1;
b0 ,
b0 2
b0 H
b0 {
b0 9
b0 E
b10 L
b10 s
b10 y
b10 a
b1 U
b1 \
b1 _
b1 z
b1 }
b10 V
b10 Z
b10 u
b1 K
b1 X
b1 [
b1000000 R
b1000000 k
b1000000 l
b10011000000110 |
b110 p
b1 o
b110 n
b10011 3
b10011 C
b1 O
b1 Y
b1 q
b0 %
b0 J
b0 N
b0 ]
b0 b
b0 r
b1000000 Q
b1000000 g
b1000000 i
b1000000 w
b100110000001100010011 +
b100110000001100010011 T
b100110000001100010011 d
b111101 P
b111101 ^
b111101 j
b111100 !
b111100 )
b111100 S
b111100 `
b111100 e
b111100 h
b111100 m
1"
#200
0"
#205
1(
18
b10 &
b10 4
b10 I
b10 x
b10 5
b10 F
b11 ,
b11 2
b11 H
b11 {
b11 9
b11 E
b11111111111111111111111111110100 K
b11111111111111111111111111110100 X
b11111111111111111111111111110100 [
1$
b1000100 L
b1000100 s
b1000100 y
b0 a
b11111111111111111111111111110100 U
b11111111111111111111111111110100 \
b11111111111111111111111111110100 _
b11111111111111111111111111110100 z
b11111111111111111111111111110100 }
b10 /
b10 =
b10 A
b10 G
b10 W
b11 B
b0 V
b0 Z
b0 u
b110100 R
b110100 k
b110100 l
b1111111101011111111100000 |
b0 p
b10101 o
b11111 n
11
b111 0
b111 >
b1101111 3
b1101111 C
b0 O
b0 Y
b0 q
b1000100 Q
b1000100 g
b1000100 i
b1000100 w
b11111111010111111111000001101111 +
b11111111010111111111000001101111 T
b11111111010111111111000001101111 d
b110100 P
b110100 ^
b110100 j
b1000000 !
b1000000 )
b1000000 S
b1000000 `
b1000000 e
b1000000 h
b1000000 m
1"
#210
0"
#215
0(
08
b1 <
b1 @
b1 D
1-
1:
0.
0;
b10 ,
b10 2
b10 H
b10 {
b10 9
b10 E
0'
06
b111000 L
b111000 s
b111000 y
b10000 K
b10000 X
b10000 [
b10100 a
b10000 U
b10000 \
b10000 _
b10000 z
b10000 }
0$
b11111111111111111111111111110100 V
b11111111111111111111111111110100 Z
b11111111111111111111111111110100 u
b1 /
b1 =
b1 A
b1 G
b1 W
b10 B
b100100010100010000 |
b10000 p
b10000 %
b10000 J
b10000 N
b10000 ]
b10000 b
b10000 r
b10010 o
b100 O
b100 Y
b100 q
b101 n
01
b0 0
b0 >
b1100011 3
b1100011 C
b111000 R
b111000 k
b111000 l
b111000 Q
b111000 g
b111000 i
b111000 w
b1001000101000100001100011 +
b1001000101000100001100011 T
b1001000101000100001100011 d
b1000100 P
b1000100 ^
b1000100 j
b110100 !
b110100 )
b110100 S
b110100 `
b110100 e
b110100 h
b110100 m
1"
#220
0"
#225
b0 /
b0 =
b0 A
b0 G
b0 W
b10 <
b10 @
b10 D
0-
0:
b0 &
b0 4
b0 I
b0 x
b0 5
b0 F
1'
16
0(
b1000 a
b1000 L
b1000 s
b1000 y
0$
b1000 V
b1000 Z
b1000 u
b100000000100 U
b100000000100 \
b100000000100 _
b100000000100 z
b100000000100 }
b100 K
b100 X
b100 [
b111100 R
b111100 k
b111100 l
b1010010100000101 |
b101 p
b100 %
b100 J
b100 N
b100 ]
b100 b
b100 r
b101 o
b110011 3
b110011 C
b111100 Q
b111100 g
b111100 i
b111100 w
b10100101000001010110011 +
b10100101000001010110011 T
b10100101000001010110011 d
b100000111100 P
b100000111100 ^
b100000111100 j
b111000 !
b111000 )
b111000 S
b111000 `
b111000 e
b111000 h
b111000 m
1"
#230
0"
#235
1.
1;
b0 ,
b0 2
b0 H
b0 {
b0 9
b0 E
b11 L
b11 s
b11 y
b11 a
b1 U
b1 \
b1 _
b1 z
b1 }
b11 V
b11 Z
b11 u
b1 K
b1 X
b1 [
b1000000 R
b1000000 k
b1000000 l
b10011000000110 |
b110 p
b1 o
b110 n
b10011 3
b10011 C
b10 O
b10 Y
b10 q
b0 %
b0 J
b0 N
b0 ]
b0 b
b0 r
b1000000 Q
b1000000 g
b1000000 i
b1000000 w
b100110000001100010011 +
b100110000001100010011 T
b100110000001100010011 d
b111101 P
b111101 ^
b111101 j
b111100 !
b111100 )
b111100 S
b111100 `
b111100 e
b111100 h
b111100 m
1"
#240
0"
#245
1(
18
b10 &
b10 4
b10 I
b10 x
b10 5
b10 F
b11 ,
b11 2
b11 H
b11 {
b11 9
b11 E
b11111111111111111111111111110100 K
b11111111111111111111111111110100 X
b11111111111111111111111111110100 [
1$
b1000100 L
b1000100 s
b1000100 y
b0 a
b11111111111111111111111111110100 U
b11111111111111111111111111110100 \
b11111111111111111111111111110100 _
b11111111111111111111111111110100 z
b11111111111111111111111111110100 }
b10 /
b10 =
b10 A
b10 G
b10 W
b11 B
b0 V
b0 Z
b0 u
b110100 R
b110100 k
b110100 l
b1111111101011111111100000 |
b0 p
b10101 o
b11111 n
11
b111 0
b111 >
b1101111 3
b1101111 C
b0 O
b0 Y
b0 q
b1000100 Q
b1000100 g
b1000100 i
b1000100 w
b11111111010111111111000001101111 +
b11111111010111111111000001101111 T
b11111111010111111111000001101111 d
b110100 P
b110100 ^
b110100 j
b1000000 !
b1000000 )
b1000000 S
b1000000 `
b1000000 e
b1000000 h
b1000000 m
1"
#250
0"
#255
0(
08
b1 <
b1 @
b1 D
1-
1:
0.
0;
b10 ,
b10 2
b10 H
b10 {
b10 9
b10 E
0'
06
b111000 L
b111000 s
b111000 y
b10000 K
b10000 X
b10000 [
b11000 a
b10000 U
b10000 \
b10000 _
b10000 z
b10000 }
0$
b11111111111111111111111111111000 V
b11111111111111111111111111111000 Z
b11111111111111111111111111111000 u
b1 /
b1 =
b1 A
b1 G
b1 W
b10 B
b100100010100010000 |
b10000 p
b10000 %
b10000 J
b10000 N
b10000 ]
b10000 b
b10000 r
b10010 o
b1000 O
b1000 Y
b1000 q
b101 n
01
b0 0
b0 >
b1100011 3
b1100011 C
b111000 R
b111000 k
b111000 l
b111000 Q
b111000 g
b111000 i
b111000 w
b1001000101000100001100011 +
b1001000101000100001100011 T
b1001000101000100001100011 d
b1000100 P
b1000100 ^
b1000100 j
b110100 !
b110100 )
b110100 S
b110100 `
b110100 e
b110100 h
b110100 m
1"
#260
0"
#265
b0 /
b0 =
b0 A
b0 G
b0 W
b10 <
b10 @
b10 D
0-
0:
b0 &
b0 4
b0 I
b0 x
b0 5
b0 F
1'
16
0(
b10000 a
b10000 L
b10000 s
b10000 y
0$
b10000 V
b10000 Z
b10000 u
b100000000100 U
b100000000100 \
b100000000100 _
b100000000100 z
b100000000100 }
b1000 K
b1000 X
b1000 [
b111100 R
b111100 k
b111100 l
b1010010100000101 |
b101 p
b1000 %
b1000 J
b1000 N
b1000 ]
b1000 b
b1000 r
b101 o
b110011 3
b110011 C
b111100 Q
b111100 g
b111100 i
b111100 w
b10100101000001010110011 +
b10100101000001010110011 T
b10100101000001010110011 d
b100000111100 P
b100000111100 ^
b100000111100 j
b111000 !
b111000 )
b111000 S
b111000 `
b111000 e
b111000 h
b111000 m
1"
#270
0"
#275
1.
1;
b0 ,
b0 2
b0 H
b0 {
b0 9
b0 E
b100 L
b100 s
b100 y
b100 a
b1 U
b1 \
b1 _
b1 z
b1 }
b100 V
b100 Z
b100 u
b1 K
b1 X
b1 [
b1000000 R
b1000000 k
b1000000 l
b10011000000110 |
b110 p
b1 o
b110 n
b10011 3
b10011 C
b11 O
b11 Y
b11 q
b0 %
b0 J
b0 N
b0 ]
b0 b
b0 r
b1000000 Q
b1000000 g
b1000000 i
b1000000 w
b100110000001100010011 +
b100110000001100010011 T
b100110000001100010011 d
b111101 P
b111101 ^
b111101 j
b111100 !
b111100 )
b111100 S
b111100 `
b111100 e
b111100 h
b111100 m
1"
#280
0"
#285
1(
18
b10 &
b10 4
b10 I
b10 x
b10 5
b10 F
b11 ,
b11 2
b11 H
b11 {
b11 9
b11 E
b11111111111111111111111111110100 K
b11111111111111111111111111110100 X
b11111111111111111111111111110100 [
1$
b1000100 L
b1000100 s
b1000100 y
b0 a
b11111111111111111111111111110100 U
b11111111111111111111111111110100 \
b11111111111111111111111111110100 _
b11111111111111111111111111110100 z
b11111111111111111111111111110100 }
b10 /
b10 =
b10 A
b10 G
b10 W
b11 B
b0 V
b0 Z
b0 u
b110100 R
b110100 k
b110100 l
b1111111101011111111100000 |
b0 p
b10101 o
b11111 n
11
b111 0
b111 >
b1101111 3
b1101111 C
b0 O
b0 Y
b0 q
b1000100 Q
b1000100 g
b1000100 i
b1000100 w
b11111111010111111111000001101111 +
b11111111010111111111000001101111 T
b11111111010111111111000001101111 d
b110100 P
b110100 ^
b110100 j
b1000000 !
b1000000 )
b1000000 S
b1000000 `
b1000000 e
b1000000 h
b1000000 m
1"
#290
0"
#295
1(
08
b1 <
b1 @
b1 D
1-
1:
0.
0;
b10 ,
b10 2
b10 H
b10 {
b10 9
b10 E
0'
06
b111000 L
b111000 s
b111000 y
b10000 K
b10000 X
b10000 [
b0 a
b10000 U
b10000 \
b10000 _
b10000 z
b10000 }
1$
b0 V
b0 Z
b0 u
b1 /
b1 =
b1 A
b1 G
b1 W
b10 B
b100100010100010000 |
b10000 p
b10000 %
b10000 J
b10000 N
b10000 ]
b10000 b
b10000 r
b10010 o
b10000 O
b10000 Y
b10000 q
b101 n
01
b0 0
b0 >
b1100011 3
b1100011 C
b1000100 R
b1000100 k
b1000100 l
b111000 Q
b111000 g
b111000 i
b111000 w
b1001000101000100001100011 +
b1001000101000100001100011 T
b1001000101000100001100011 d
b1000100 P
b1000100 ^
b1000100 j
b110100 !
b110100 )
b110100 S
b110100 `
b110100 e
b110100 h
b110100 m
1"
#300
0"
#305
b0 /
b0 =
b0 A
b0 G
b0 W
b10 <
b10 @
b10 D
0-
0:
b0 &
b0 4
b0 I
b0 x
b0 5
b0 F
1'
16
0(
b0 L
b0 s
b0 y
b0 a
b100000001000 U
b100000001000 \
b100000001000 _
b100000001000 z
b100000001000 }
b0 K
b0 X
b0 [
1$
b0 V
b0 Z
b0 u
b1001 |
b1001 p
b0 %
b0 J
b0 N
b0 ]
b0 b
b0 r
b0 o
b0 O
b0 Y
b0 q
b0 n
b110011 3
b110011 C
b1001000 R
b1001000 k
b1001000 l
b1001000 Q
b1001000 g
b1001000 i
b1001000 w
b10010110011 +
b10010110011 T
b10010110011 d
b100001001100 P
b100001001100 ^
b100001001100 j
b1000100 !
b1000100 )
b1000100 S
b1000100 `
b1000100 e
b1000100 h
b1000100 m
1"
#310
0"
#315
1.
1;
b0 ,
b0 2
b0 H
b0 {
b0 9
b0 E
b0 U
b0 \
b0 _
b0 z
b0 }
b1001100 R
b1001100 k
b1001100 l
b101 |
b101 p
b10011 3
b10011 C
b1001100 Q
b1001100 g
b1001100 i
b1001100 w
b1010010011 +
b1010010011 T
b1010010011 d
b1001000 P
b1001000 ^
b1001000 j
b1001000 !
b1001000 )
b1001000 S
b1001000 `
b1001000 e
b1001000 h
b1001000 m
1"
#320
0"
