rv32i_tb.vcd
$date
	Tue Nov 19 20:45:42 2024
$end
$version
	Icarus Verilog
$end
$timescale
	1ps
$end
$scope module rv32i_tb $end
$var wire 32 ! pc [31:0] $end
$var reg 1 " clk $end
$var reg 1 # reset $end
$scope module uut $end
$var wire 1 " clk $end
$var wire 1 # reset $end
$var wire 1 $ zero $end
$var wire 32 % writeData [31:0] $end
$var wire 2 & resSrc [1:0] $end
$var wire 1 ' regWrite $end
$var wire 1 ( pcSrc $end
$var wire 32 ) pc [31:0] $end
$var wire 1 * memWrite $end
$var wire 32 + instruction [31:0] $end
$var wire 2 , inmSrc [1:0] $end
$var wire 1 - aluSrc $end
$var wire 3 . ALUcontrol [2:0] $end
$scope module control_unit $end
$var wire 3 / funct3 [2:0] $end
$var wire 1 0 funct7 $end
$var wire 7 1 op [6:0] $end
$var wire 1 ( pcSrc $end
$var wire 1 $ zero $end
$var wire 2 2 resultSrc [1:0] $end
$var wire 1 ' regWrite $end
$var wire 1 * memWrite $end
$var wire 1 3 jump $end
$var wire 2 4 immSrc [1:0] $end
$var wire 1 5 branch $end
$var wire 1 - aluSrc $end
$var wire 2 6 aluOp [1:0] $end
$var wire 3 7 ALUcontrol [2:0] $end
$scope module alu_decoder $end
$var wire 3 8 funct3 [2:0] $end
$var wire 1 0 funct7 $end
$var wire 1 9 opcode $end
$var wire 2 : op [1:0] $end
$var reg 3 ; ALUControl [2:0] $end
$var reg 2 < aux [1:0] $end
$upscope $end
$scope module main_decoder $end
$var wire 7 = op [6:0] $end
$var reg 2 > aluOp [1:0] $end
$var reg 1 - aluSrc $end
$var reg 1 5 branch $end
$var reg 2 ? immSrc [1:0] $end
$var reg 1 3 jump $end
$var reg 1 * memWrite $end
$var reg 1 ' regWrite $end
$var reg 2 @ resultSrc [1:0] $end
$upscope $end
$upscope $end
$scope module data_path $end
$var wire 3 A ALUcontrol [2:0] $end
$var wire 1 - aluSrc $end
$var wire 1 " clk $end
$var wire 2 B immSrc [1:0] $end
$var wire 1 * memWrite $end
$var wire 1 ( pcSrc $end
$var wire 1 ' regWrite $end
$var wire 1 # reset $end
$var wire 2 C resultSrc [1:0] $end
$var wire 32 D writeData [31:0] $end
$var wire 1 $ zero $end
$var wire 32 E srcb [31:0] $end
$var wire 32 F result [31:0] $end
$var wire 32 G readData [31:0] $end
$var wire 32 H rd2 [31:0] $end
$var wire 32 I rd1 [31:0] $end
$var wire 32 J pcTarget [31:0] $end
$var wire 32 K pcPlus4 [31:0] $end
$var wire 32 L pcNext [31:0] $end
$var wire 32 M pc [31:0] $end
$var wire 32 N instruction [31:0] $end
$var wire 32 O immExt [31:0] $end
$var wire 32 P aluResult [31:0] $end
$scope module alu $end
$var wire 3 Q ALUControl [2:0] $end
$var wire 32 R srcB [31:0] $end
$var wire 32 S srcA [31:0] $end
$var wire 32 T ALUResult [31:0] $end
$var reg 32 U aux [31:0] $end
$var reg 1 $ zero $end
$upscope $end
$scope module alu_src_mux $end
$var wire 1 - sel $end
$var wire 32 V salMux [31:0] $end
$var wire 32 W e2 [31:0] $end
$var wire 32 X e1 [31:0] $end
$upscope $end
$scope module branch_adder $end
$var wire 32 Y res [31:0] $end
$var wire 32 Z op2 [31:0] $end
$var wire 32 [ op1 [31:0] $end
$upscope $end
$scope module data_memory $end
$var wire 5 \ a [4:0] $end
$var wire 1 " clk $end
$var wire 1 * we $end
$var wire 32 ] wd [31:0] $end
$var reg 32 ^ rd [31:0] $end
$upscope $end
$scope module instructionMemory $end
$var wire 5 _ address [4:0] $end
$var reg 32 ` readData [31:0] $end
$upscope $end
$scope module pc_increment $end
$var wire 32 a op2 [31:0] $end
$var wire 32 b res [31:0] $end
$var wire 32 c op1 [31:0] $end
$upscope $end
$scope module pc_mux $end
$var wire 32 d e1 [31:0] $end
$var wire 32 e e2 [31:0] $end
$var wire 1 ( sel $end
$var wire 32 f salMux [31:0] $end
$upscope $end
$scope module pc_reg $end
$var wire 1 " clk $end
$var wire 32 g pcNext [31:0] $end
$var wire 1 # reset $end
$var reg 32 h pc [31:0] $end
$upscope $end
$scope module regFile $end
$var wire 5 i a1 [4:0] $end
$var wire 5 j a2 [4:0] $end
$var wire 5 k a3 [4:0] $end
$var wire 1 " clk $end
$var wire 32 l rd1 [31:0] $end
$var wire 32 m rd2 [31:0] $end
$var wire 1 ' we3 $end
$var wire 32 n wd3 [31:0] $end
$var integer 32 o i [31:0] $end
$upscope $end
$scope module result_mux $end
$var wire 32 p e1 [31:0] $end
$var wire 32 q e2 [31:0] $end
$var wire 32 r e3 [31:0] $end
$var wire 2 s sel [1:0] $end
$var reg 32 t sal [31:0] $end
$upscope $end
$scope module sign_ext $end
$var wire 2 u immSrc [1:0] $end
$var wire 25 v inm [24:0] $end
$var wire 32 w immExt [31:0] $end
$var reg 32 x inAux [31:0] $end
$upscope $end
$upscope $end
$upscope $end
$upscope $end
$enddefinitions $end
$comment Show the parameter values. $end
$dumpall
$end
#0
$dumpvars
b11 x
b11 w
b110000000001000 v
b0 u
b11 t
b0 s
b100 r
bx q
b11 p
b100000 o
b11 n
b0 m
b0 l
b1000 k
b11 j
b0 i
b0 h
b100 g
b100 f
b11 e
b100 d
b0 c
b100 b
b100 a
b1100000000010000010011 `
b0 _
bx ^
b0 ]
b0 \
b0 [
b11 Z
b11 Y
b0 X
b11 W
b11 V
b11 U
b11 T
b0 S
b11 R
b0 Q
b11 P
b11 O
b1100000000010000010011 N
b0 M
b100 L
b100 K
b11 J
b0 I
b0 H
bx G
b11 F
b11 E
b0 D
b0 C
b0 B
b0 A
b0 @
b0 ?
b10 >
b10011 =
b0 <
b0 ;
b10 :
09
b0 8
b0 7
b10 6
05
b0 4
03
b0 2
b10011 1
00
b0 /
b0 .
1-
b0 ,
b1100000000010000010011 +
0*
b0 )
0(
1'
b0 &
b0 %
0$
1#
0"
b0 !
$end
#5
1"
#10
0"
0#
#15
b1 F
b1 n
b1 t
b1 P
b1 T
b1 U
b1 p
b1 E
b1 R
b1 V
b1 O
b1 W
b1 Z
b1 w
b1 x
b10000000001001 v
b1001 k
b1 j
b100000000010010010011 +
b100000000010010010011 N
b100000000010010010011 `
b1000 L
b1000 f
b1000 g
b1 _
b1000 K
b1000 b
b1000 d
b1000 r
b101 J
b101 Y
b101 e
b100 !
b100 )
b100 M
b100 [
b100 c
b100 h
1"
#20
0"
#25
b100 \
b10000 F
b10000 n
b10000 t
b10000 P
b10000 T
b10000 U
b10000 p
b10000 E
b10000 R
b10000 V
b10000 O
b10000 W
b10000 Z
b10000 w
b10000 x
b100000000000010010 v
b10010 k
b10000 j
b1000000000000100100010011 +
b1000000000000100100010011 N
b1000000000000100100010011 `
b1100 L
b1100 f
b1100 g
b10 _
b1100 K
b1100 b
b1100 d
b1100 r
b11000 J
b11000 Y
b11000 e
b1000 !
b1000 )
b1000 M
b1000 [
b1000 c
b1000 h
1"
#30
0"
#35
b0 \
b11 F
b11 n
b11 t
b1 E
b1 R
b1 V
b1001 O
b1001 W
b1001 Z
b1001 w
b1001 x
b11 P
b11 T
b11 U
b11 p
b11 .
b11 7
b11 ;
b11 A
b11 Q
b10 <
19
0-
b10010100011000101 v
b101 k
b1 %
b1 D
b1 H
b1 X
b1 ]
b1 m
b1001 j
b11 I
b11 S
b11 l
b1000 i
b110 /
b110 8
b110011 1
b110011 =
b100101000110001010110011 +
b100101000110001010110011 N
b100101000110001010110011 `
b10000 L
b10000 f
b10000 g
b11 _
b10000 K
b10000 b
b10000 d
b10000 r
b10101 J
b10101 Y
b10101 e
b1100 !
b1100 )
b1100 M
b1100 [
b1100 c
b1100 h
1"
#40
0"
#45
b1 F
b1 n
b1 t
b1 P
b1 T
b1 U
b1 p
b10 .
b10 7
b10 ;
b10 A
b10 Q
b10010100011100110 v
b110 k
b111 /
b111 8
b100101000111001100110011 +
b100101000111001100110011 N
b100101000111001100110011 `
b10100 L
b10100 f
b10100 g
b100 _
b10100 K
b10100 b
b10100 d
b10100 r
b11001 J
b11001 Y
b11001 e
b10000 !
b10000 )
b10000 M
b10000 [
b10000 c
b10000 h
1"
#50
0"
#55
b1 \
b100 F
b100 n
b100 t
b100 P
b100 T
b100 U
b100 p
b0 .
b0 7
b0 ;
b0 A
b0 Q
b10010100000000111 v
b111 k
b0 /
b0 8
b100101000000001110110011 +
b100101000000001110110011 N
b100101000000001110110011 `
b11000 L
b11000 f
b11000 g
b101 _
b11000 K
b11000 b
b11000 d
b11000 r
b11101 J
b11101 Y
b11101 e
b10100 !
b10100 )
b10100 M
b10100 [
b10100 c
b10100 h
1"
#60
0"
#65
b0 \
b10 F
b10 n
b10 t
b10 P
b10 T
b10 U
b10 p
b10000001001 O
b10000001001 W
b10000001001 Z
b10000001001 w
b10000001001 x
b1 .
b1 7
b1 ;
b1 A
b1 Q
b11 <
b100000010010100000011100 v
b11100 k
10
b1000000100101000000111000110011 +
b1000000100101000000111000110011 N
b1000000100101000000111000110011 `
b11100 L
b11100 f
b11100 g
b110 _
b11100 K
b11100 b
b11100 d
b11100 r
b10000100001 J
b10000100001 Y
b10000100001 e
b11000 !
b11000 )
b11000 M
b11000 [
b11000 c
b11000 h
1"
#70
0"
#75
b11111 \
b11111111111111111111111111111110 F
b11111111111111111111111111111110 n
b11111111111111111111111111111110 t
b10000001000 O
b10000001000 W
b10000001000 Z
b10000001000 w
b10000001000 x
b11 E
b11 R
b11 V
0$
b11111111111111111111111111111110 P
b11111111111111111111111111111110 T
b11111111111111111111111111111110 U
b11111111111111111111111111111110 p
b100000010000100100011101 v
b11101 k
b11 %
b11 D
b11 H
b11 X
b11 ]
b11 m
b1000 j
b1 I
b1 S
b1 l
b1001 i
b1000000100001001000111010110011 +
b1000000100001001000111010110011 N
b1000000100001001000111010110011 `
b100000 L
b100000 f
b100000 g
b111 _
b100000 K
b100000 b
b100000 d
b100000 r
b10000100100 J
b10000100100 Y
b10000100100 e
b11100 !
b11100 )
b11100 M
b11100 [
b11100 c
b11100 h
1"
#80
0"
#85
b0 \
b0 F
b0 n
b0 t
b1001 O
b1001 W
b1001 Z
b1001 w
b1001 x
b1 E
b1 R
b1 V
1$
b0 P
b0 T
b0 U
b0 p
b101 .
b101 7
b101 ;
b101 A
b101 Q
b10 <
b10010100001011110 v
b11110 k
b1 %
b1 D
b1 H
b1 X
b1 ]
b1 m
b1001 j
b11 I
b11 S
b11 l
b1000 i
00
b10 /
b10 8
b100101000010111100110011 +
b100101000010111100110011 N
b100101000010111100110011 `
b100100 L
b100100 f
b100100 g
b1000 _
b100100 K
b100100 b
b100100 d
b100100 r
b101001 J
b101001 Y
b101001 e
b100000 !
b100000 )
b100000 M
b100000 [
b100000 c
b100000 h
1"
#90
0"
#95
b1 F
b1 n
b1 t
0$
b1 P
b1 T
b1 U
b1 p
b1000 O
b1000 W
b1000 Z
b1000 w
b1000 x
b11 E
b11 R
b11 V
b10000100101011111 v
b11111 k
b11 %
b11 D
b11 H
b11 X
b11 ]
b11 m
b1000 j
b1 I
b1 S
b1 l
b1001 i
b100001001010111110110011 +
b100001001010111110110011 N
b100001001010111110110011 `
b101000 L
b101000 f
b101000 g
b1001 _
b101000 K
b101000 b
b101000 d
b101000 r
b101100 J
b101100 Y
b101100 e
b100100 !
b100100 )
b100100 M
b100100 [
b100100 c
b100100 h
1"
#100
0"
#105
b11101 O
b11101 W
b11101 Z
b11101 w
b11101 x
b11111111111111111111111111111110 E
b11111111111111111111111111111110 R
b11111111111111111111111111111110 V
b111010100101011111 v
b11111111111111111111111111111110 %
b11111111111111111111111111111110 D
b11111111111111111111111111111110 H
b11111111111111111111111111111110 X
b11111111111111111111111111111110 ]
b11111111111111111111111111111110 m
b11101 j
b1110101001010111110110011 +
b1110101001010111110110011 N
b1110101001010111110110011 `
b101100 L
b101100 f
b101100 g
b1010 _
b101100 K
b101100 b
b101100 d
b101100 r
b1000101 J
b1000101 Y
b1000101 e
b101000 !
b101000 )
b101000 M
b101000 [
b101000 c
b101000 h
1"
#110
0"
#115
b0 \
b1 F
b1 n
b1 t
b1 O
b1 W
b1 Z
b1 w
b1 x
b1 E
b1 R
b1 V
b1 P
b1 T
b1 U
b1 p
b0 .
b0 7
b0 ;
b0 A
b0 Q
b0 <
09
1-
b10000000000101 v
b101 k
b0 %
b0 D
b0 H
b0 X
b0 ]
b0 m
b1 j
b0 I
b0 S
b0 l
b0 i
b0 /
b0 8
b10011 1
b10011 =
b100000000001010010011 +
b100000000001010010011 N
b100000000001010010011 `
b110000 L
b110000 f
b110000 g
b1011 _
b110000 K
b110000 b
b110000 d
b110000 r
b101101 J
b101101 Y
b101101 e
b101100 !
b101100 )
b101100 M
b101100 [
b101100 c
b101100 h
1"
#120
0"
#125
b0 F
b0 n
b0 t
1$
b0 P
b0 T
b0 U
b0 p
b0 E
b0 R
b0 V
b0 O
b0 W
b0 Z
b0 w
b0 x
b110 v
b110 k
b0 j
b1100010011 +
b1100010011 N
b1100010011 `
b110100 L
b110100 f
b110100 g
b1100 _
b110100 K
b110100 b
b110100 d
b110100 r
b110000 J
b110000 Y
b110000 e
b110000 !
b110000 )
b110000 M
b110000 [
b110000 c
b110000 h
1"
#130
0"
#135
b11100 \
b11111111111111111111111111110001 F
b11111111111111111111111111110001 n
b11111111111111111111111111110001 t
b1 .
b1 7
b1 ;
b1 A
b1 Q
b10 <
b10000 E
b10000 R
b10000 V
b10000 O
b10000 W
b10000 Z
b10000 w
b10000 x
0$
b11111111111111111111111111110001 P
b11111111111111111111111111110001 T
b11111111111111111111111111110001 U
b11111111111111111111111111110001 p
19
b1 6
b1 :
b1 >
15
0-
b10 ,
b10 4
b10 ?
b10 B
b10 u
0'
b100100010100010000 v
b10000 k
b10000 %
b10000 D
b10000 H
b10000 X
b10000 ]
b10000 m
b10010 j
b1 I
b1 S
b1 l
b101 i
b1100011 1
b1100011 =
b1001000101000100001100011 +
b1001000101000100001100011 N
b1001000101000100001100011 `
b111000 L
b111000 f
b111000 g
b1101 _
b111000 K
b111000 b
b111000 d
b111000 r
b1000100 J
b1000100 Y
b1000100 e
b110100 !
b110100 )
b110100 M
b110100 [
b110100 c
b110100 h
1"
#140
0"
#145
b0 \
b10 F
b10 n
b10 t
b10 P
b10 T
b10 U
b10 p
b0 .
b0 7
b0 ;
b0 A
b0 Q
b100000000100 O
b100000000100 W
b100000000100 Z
b100000000100 w
b100000000100 x
b1 E
b1 R
b1 V
b10 6
b10 :
b10 >
05
1'
b1010010100000101 v
b101 k
b1 %
b1 D
b1 H
b1 X
b1 ]
b1 m
b101 j
b110011 1
b110011 =
b10100101000001010110011 +
b10100101000001010110011 N
b10100101000001010110011 `
b111100 L
b111100 f
b111100 g
b1110 _
b111100 K
b111100 b
b111100 d
b111100 r
b100000111100 J
b100000111100 Y
b100000111100 e
b111000 !
b111000 )
b111000 M
b111000 [
b111000 c
b111000 h
1"
#150
0"
#155
b0 <
b1 O
b1 W
b1 Z
b1 w
b1 x
09
1-
b0 ,
b0 4
b0 ?
b0 B
b0 u
b10011000000110 v
b110 k
b1 j
b110 i
b10011 1
b10011 =
b100110000001100010011 +
b100110000001100010011 N
b100110000001100010011 `
b0 \
b1 F
b1 n
b1 t
b1 P
b1 T
b1 U
b1 p
b1 E
b1 R
b1 V
b1000000 L
b1000000 f
b1000000 g
b1111 _
b0 I
b0 S
b0 l
b0 %
b0 D
b0 H
b0 X
b0 ]
b0 m
b1000000 K
b1000000 b
b1000000 d
b1000000 r
b111101 J
b111101 Y
b111101 e
b111100 !
b111100 )
b111100 M
b111100 [
b111100 c
b111100 h
1"
#160
0"
#165
1$
b11111111111111111111111111110100 E
b11111111111111111111111111110100 R
b11111111111111111111111111110100 V
1(
b11111111111111111111111111110100 O
b11111111111111111111111111110100 W
b11111111111111111111111111110100 Z
b11111111111111111111111111110100 w
b11111111111111111111111111110100 x
b10 .
b10 7
b10 ;
b10 A
b10 Q
b11 <
19
13
b10 &
b10 2
b10 @
b10 C
b10 s
b11 ,
b11 4
b11 ?
b11 B
b11 u
b1111111101011111111100000 v
b0 k
b10101 j
b11111 i
10
b111 /
b111 8
b1101111 1
b1101111 =
b11111111010111111111000001101111 +
b11111111010111111111000001101111 N
b11111111010111111111000001101111 `
b1000100 F
b1000100 n
b1000100 t
b0 P
b0 T
b0 U
b0 p
b110100 L
b110100 f
b110100 g
b10000 _
b1 I
b1 S
b1 l
b1000100 K
b1000100 b
b1000100 d
b1000100 r
b110100 J
b110100 Y
b110100 e
b1000000 !
b1000000 )
b1000000 M
b1000000 [
b1000000 c
b1000000 h
1"
#170
0"
#175
b11100 \
0(
b10000 E
b10000 R
b10000 V
b10000 O
b10000 W
b10000 Z
b10000 w
b10000 x
0$
b11111111111111111111111111110010 P
b11111111111111111111111111110010 T
b11111111111111111111111111110010 U
b11111111111111111111111111110010 p
b1 .
b1 7
b1 ;
b1 A
b1 Q
b10 <
03
b1 6
b1 :
b1 >
15
0-
b10 ,
b10 4
b10 ?
b10 B
b10 u
0'
b100100010100010000 v
b10000 k
b10000 %
b10000 D
b10000 H
b10000 X
b10000 ]
b10000 m
b10010 j
b10 I
b10 S
b10 l
b101 i
00
b0 /
b0 8
b1100011 1
b1100011 =
b1001000101000100001100011 +
b1001000101000100001100011 N
b1001000101000100001100011 `
b111000 F
b111000 n
b111000 t
b111000 L
b111000 f
b111000 g
b1101 _
b111000 K
b111000 b
b111000 d
b111000 r
b1000100 J
b1000100 Y
b1000100 e
b110100 !
b110100 )
b110100 M
b110100 [
b110100 c
b110100 h
1"
#180
0"
#185
b1 \
b100 P
b100 T
b100 U
b100 p
b0 .
b0 7
b0 ;
b0 A
b0 Q
b100000000100 O
b100000000100 W
b100000000100 Z
b100000000100 w
b100000000100 x
b10 E
b10 R
b10 V
b10 6
b10 :
b10 >
05
b0 &
b0 2
b0 @
b0 C
b0 s
1'
b1010010100000101 v
b101 k
b10 %
b10 D
b10 H
b10 X
b10 ]
b10 m
b101 j
b110011 1
b110011 =
b10100101000001010110011 +
b10100101000001010110011 N
b10100101000001010110011 `
b111100 L
b111100 f
b111100 g
b100 F
b100 n
b100 t
b1110 _
b111100 K
b111100 b
b111100 d
b111100 r
b100000111100 J
b100000111100 Y
b100000111100 e
b111000 !
b111000 )
b111000 M
b111000 [
b111000 c
b111000 h
1"
#190
0"
#195
b0 <
b1 O
b1 W
b1 Z
b1 w
b1 x
09
1-
b0 ,
b0 4
b0 ?
b0 B
b0 u
b10011000000110 v
b110 k
b1 j
b110 i
b10011 1
b10011 =
b100110000001100010011 +
b100110000001100010011 N
b100110000001100010011 `
b0 \
b10 F
b10 n
b10 t
b10 P
b10 T
b10 U
b10 p
b1 E
b1 R
b1 V
b1000000 L
b1000000 f
b1000000 g
b1111 _
b1 I
b1 S
b1 l
b0 %
b0 D
b0 H
b0 X
b0 ]
b0 m
b1000000 K
b1000000 b
b1000000 d
b1000000 r
b111101 J
b111101 Y
b111101 e
b111100 !
b111100 )
b111100 M
b111100 [
b111100 c
b111100 h
1"
#200
0"
#205
1$
b11111111111111111111111111110100 E
b11111111111111111111111111110100 R
b11111111111111111111111111110100 V
1(
b11111111111111111111111111110100 O
b11111111111111111111111111110100 W
b11111111111111111111111111110100 Z
b11111111111111111111111111110100 w
b11111111111111111111111111110100 x
b10 .
b10 7
b10 ;
b10 A
b10 Q
b11 <
19
13
b10 &
b10 2
b10 @
b10 C
b10 s
b11 ,
b11 4
b11 ?
b11 B
b11 u
b1111111101011111111100000 v
b0 k
b10101 j
b11111 i
10
b111 /
b111 8
b1101111 1
b1101111 =
b11111111010111111111000001101111 +
b11111111010111111111000001101111 N
b11111111010111111111000001101111 `
b1000100 F
b1000100 n
b1000100 t
b0 P
b0 T
b0 U
b0 p
b110100 L
b110100 f
b110100 g
b10000 _
b1 I
b1 S
b1 l
b1000100 K
b1000100 b
b1000100 d
b1000100 r
b110100 J
b110100 Y
b110100 e
b1000000 !
b1000000 )
b1000000 M
b1000000 [
b1000000 c
b1000000 h
1"
#210
0"
#215
b11101 \
0(
b10000 E
b10000 R
b10000 V
b10000 O
b10000 W
b10000 Z
b10000 w
b10000 x
0$
b11111111111111111111111111110100 P
b11111111111111111111111111110100 T
b11111111111111111111111111110100 U
b11111111111111111111111111110100 p
b1 .
b1 7
b1 ;
b1 A
b1 Q
b10 <
03
b1 6
b1 :
b1 >
15
0-
b10 ,
b10 4
b10 ?
b10 B
b10 u
0'
b100100010100010000 v
b10000 k
b10000 %
b10000 D
b10000 H
b10000 X
b10000 ]
b10000 m
b10010 j
b100 I
b100 S
b100 l
b101 i
00
b0 /
b0 8
b1100011 1
b1100011 =
b1001000101000100001100011 +
b1001000101000100001100011 N
b1001000101000100001100011 `
b111000 F
b111000 n
b111000 t
b111000 L
b111000 f
b111000 g
b1101 _
b111000 K
b111000 b
b111000 d
b111000 r
b1000100 J
b1000100 Y
b1000100 e
b110100 !
b110100 )
b110100 M
b110100 [
b110100 c
b110100 h
1"
#220
0"
#225
b10 \
b1000 P
b1000 T
b1000 U
b1000 p
b0 .
b0 7
b0 ;
b0 A
b0 Q
b100000000100 O
b100000000100 W
b100000000100 Z
b100000000100 w
b100000000100 x
b100 E
b100 R
b100 V
b10 6
b10 :
b10 >
05
b0 &
b0 2
b0 @
b0 C
b0 s
1'
b1010010100000101 v
b101 k
b100 %
b100 D
b100 H
b100 X
b100 ]
b100 m
b101 j
b110011 1
b110011 =
b10100101000001010110011 +
b10100101000001010110011 N
b10100101000001010110011 `
b111100 L
b111100 f
b111100 g
b1000 F
b1000 n
b1000 t
b1110 _
b111100 K
b111100 b
b111100 d
b111100 r
b100000111100 J
b100000111100 Y
b100000111100 e
b111000 !
b111000 )
b111000 M
b111000 [
b111000 c
b111000 h
1"
#230
0"
#235
b0 <
b1 O
b1 W
b1 Z
b1 w
b1 x
09
1-
b0 ,
b0 4
b0 ?
b0 B
b0 u
b10011000000110 v
b110 k
b1 j
b110 i
b10011 1
b10011 =
b100110000001100010011 +
b100110000001100010011 N
b100110000001100010011 `
b0 \
b11 F
b11 n
b11 t
b11 P
b11 T
b11 U
b11 p
b1 E
b1 R
b1 V
b1000000 L
b1000000 f
b1000000 g
b1111 _
b10 I
b10 S
b10 l
b0 %
b0 D
b0 H
b0 X
b0 ]
b0 m
b1000000 K
b1000000 b
b1000000 d
b1000000 r
b111101 J
b111101 Y
b111101 e
b111100 !
b111100 )
b111100 M
b111100 [
b111100 c
b111100 h
1"
#240
0"
#245
1$
b11111111111111111111111111110100 E
b11111111111111111111111111110100 R
b11111111111111111111111111110100 V
1(
b11111111111111111111111111110100 O
b11111111111111111111111111110100 W
b11111111111111111111111111110100 Z
b11111111111111111111111111110100 w
b11111111111111111111111111110100 x
b10 .
b10 7
b10 ;
b10 A
b10 Q
b11 <
19
13
b10 &
b10 2
b10 @
b10 C
b10 s
b11 ,
b11 4
b11 ?
b11 B
b11 u
b1111111101011111111100000 v
b0 k
b10101 j
b11111 i
10
b111 /
b111 8
b1101111 1
b1101111 =
b11111111010111111111000001101111 +
b11111111010111111111000001101111 N
b11111111010111111111000001101111 `
b0 \
b1000100 F
b1000100 n
b1000100 t
b0 P
b0 T
b0 U
b0 p
b110100 L
b110100 f
b110100 g
b10000 _
b1 I
b1 S
b1 l
b1000100 K
b1000100 b
b1000100 d
b1000100 r
b110100 J
b110100 Y
b110100 e
b1000000 !
b1000000 )
b1000000 M
b1000000 [
b1000000 c
b1000000 h
1"
#250
0"
#255
b11110 \
0(
b10000 E
b10000 R
b10000 V
b10000 O
b10000 W
b10000 Z
b10000 w
b10000 x
0$
b11111111111111111111111111111000 P
b11111111111111111111111111111000 T
b11111111111111111111111111111000 U
b11111111111111111111111111111000 p
b1 .
b1 7
b1 ;
b1 A
b1 Q
b10 <
03
b1 6
b1 :
b1 >
15
0-
b10 ,
b10 4
b10 ?
b10 B
b10 u
0'
b100100010100010000 v
b10000 k
b10000 %
b10000 D
b10000 H
b10000 X
b10000 ]
b10000 m
b10010 j
b1000 I
b1000 S
b1000 l
b101 i
00
b0 /
b0 8
b1100011 1
b1100011 =
b1001000101000100001100011 +
b1001000101000100001100011 N
b1001000101000100001100011 `
b111000 F
b111000 n
b111000 t
b111000 L
b111000 f
b111000 g
b1101 _
b111000 K
b111000 b
b111000 d
b111000 r
b1000100 J
b1000100 Y
b1000100 e
b110100 !
b110100 )
b110100 M
b110100 [
b110100 c
b110100 h
1"
#260
0"
#265
b100 \
b10000 P
b10000 T
b10000 U
b10000 p
b0 .
b0 7
b0 ;
b0 A
b0 Q
b100000000100 O
b100000000100 W
b100000000100 Z
b100000000100 w
b100000000100 x
b1000 E
b1000 R
b1000 V
b10 6
b10 :
b10 >
05
b0 &
b0 2
b0 @
b0 C
b0 s
1'
b1010010100000101 v
b101 k
b1000 %
b1000 D
b1000 H
b1000 X
b1000 ]
b1000 m
b101 j
b110011 1
b110011 =
b10100101000001010110011 +
b10100101000001010110011 N
b10100101000001010110011 `
b111100 L
b111100 f
b111100 g
b10000 F
b10000 n
b10000 t
b1110 _
b111100 K
b111100 b
b111100 d
b111100 r
b100000111100 J
b100000111100 Y
b100000111100 e
b111000 !
b111000 )
b111000 M
b111000 [
b111000 c
b111000 h
1"
#270
0"
#275
b0 <
b1 O
b1 W
b1 Z
b1 w
b1 x
09
1-
b0 ,
b0 4
b0 ?
b0 B
b0 u
b10011000000110 v
b110 k
b1 j
b110 i
b10011 1
b10011 =
b100110000001100010011 +
b100110000001100010011 N
b100110000001100010011 `
b1 \
b100 F
b100 n
b100 t
b100 P
b100 T
b100 U
b100 p
b1 E
b1 R
b1 V
b1000000 L
b1000000 f
b1000000 g
b1111 _
b11 I
b11 S
b11 l
b0 %
b0 D
b0 H
b0 X
b0 ]
b0 m
b1000000 K
b1000000 b
b1000000 d
b1000000 r
b111101 J
b111101 Y
b111101 e
b111100 !
b111100 )
b111100 M
b111100 [
b111100 c
b111100 h
1"
#280
0"
#285
1$
b11111111111111111111111111110100 E
b11111111111111111111111111110100 R
b11111111111111111111111111110100 V
b0 \
1(
b11111111111111111111111111110100 O
b11111111111111111111111111110100 W
b11111111111111111111111111110100 Z
b11111111111111111111111111110100 w
b11111111111111111111111111110100 x
b10 .
b10 7
b10 ;
b10 A
b10 Q
b11 <
19
13
b10 &
b10 2
b10 @
b10 C
b10 s
b11 ,
b11 4
b11 ?
b11 B
b11 u
b1111111101011111111100000 v
b0 k
b10101 j
b11111 i
10
b111 /
b111 8
b1101111 1
b1101111 =
b11111111010111111111000001101111 +
b11111111010111111111000001101111 N
b11111111010111111111000001101111 `
b1000100 F
b1000100 n
b1000100 t
b0 P
b0 T
b0 U
b0 p
b110100 L
b110100 f
b110100 g
b10000 _
b1 I
b1 S
b1 l
b1000100 K
b1000100 b
b1000100 d
b1000100 r
b110100 J
b110100 Y
b110100 e
b1000000 !
b1000000 )
b1000000 M
b1000000 [
b1000000 c
b1000000 h
1"
#290
0"
#295
b0 \
1(
b10000 E
b10000 R
b10000 V
b10000 O
b10000 W
b10000 Z
b10000 w
b10000 x
1$
b0 P
b0 T
b0 U
b0 p
b1 .
b1 7
b1 ;
b1 A
b1 Q
b10 <
03
b1 6
b1 :
b1 >
15
0-
b10 ,
b10 4
b10 ?
b10 B
b10 u
0'
b100100010100010000 v
b10000 k
b10000 %
b10000 D
b10000 H
b10000 X
b10000 ]
b10000 m
b10010 j
b10000 I
b10000 S
b10000 l
b101 i
00
b0 /
b0 8
b1100011 1
b1100011 =
b1001000101000100001100011 +
b1001000101000100001100011 N
b1001000101000100001100011 `
b111000 F
b111000 n
b111000 t
b1000100 L
b1000100 f
b1000100 g
b1101 _
b111000 K
b111000 b
b111000 d
b111000 r
b1000100 J
b1000100 Y
b1000100 e
b110100 !
b110100 )
b110100 M
b110100 [
b110100 c
b110100 h
1"
#300
0"
#305
0(
b0 \
b0 .
b0 7
b0 ;
b0 A
b0 Q
b100000001000 O
b100000001000 W
b100000001000 Z
b100000001000 w
b100000001000 x
b0 E
b0 R
b0 V
1$
b0 P
b0 T
b0 U
b0 p
b10 6
b10 :
b10 >
05
b0 &
b0 2
b0 @
b0 C
b0 s
1'
b1001 v
b1001 k
b0 %
b0 D
b0 H
b0 X
b0 ]
b0 m
b0 j
b0 I
b0 S
b0 l
b0 i
b110011 1
b110011 =
b10010110011 +
b10010110011 N
b10010110011 `
b0 F
b0 n
b0 t
b1001000 L
b1001000 f
b1001000 g
b10001 _
b1001000 K
b1001000 b
b1001000 d
b1001000 r
b100001001100 J
b100001001100 Y
b100001001100 e
b1000100 !
b1000100 )
b1000100 M
b1000100 [
b1000100 c
b1000100 h
1"
#310
0"
#315
b0 <
b0 O
b0 W
b0 Z
b0 w
b0 x
09
1-
b0 ,
b0 4
b0 ?
b0 B
b0 u
b101 v
b101 k
b10011 1
b10011 =
b1010010011 +
b1010010011 N
b1010010011 `
b1001100 L
b1001100 f
b1001100 g
b10010 _
b1001100 K
b1001100 b
b1001100 d
b1001100 r
b1001000 J
b1001000 Y
b1001000 e
b1001000 !
b1001000 )
b1001000 M
b1001000 [
b1001000 c
b1001000 h
1"
#320
0"
#325
b10 \
b1010 F
b1010 n
b1010 t
0$
b1010 P
b1010 T
b1010 U
b1010 p
b1010 E
b1010 R
b1010 V
b1010 O
b1010 W
b1010 Z
b1010 w
b1010 x
b10100000000000110 v
b110 k
b1010 j
b101000000000001100010011 +
b101000000000001100010011 N
b101000000000001100010011 `
b1010000 L
b1010000 f
b1010000 g
b10011 _
b1010000 K
b1010000 b
b1010000 d
b1010000 r
b1010110 J
b1010110 Y
b1010110 e
b1001100 !
b1001100 )
b1001100 M
b1001100 [
b1001100 c
b1001100 h
1"
#330
0"
