rv32i_tb.vcd
$date
	Fri Nov 15 19:17:11 2024
$end
$version
	Icarus Verilog
$end
$timescale
	1ps
$end
$scope module rv32i_tb $end
$var wire 32 ! pc [31:0] $end
$var reg 1 " clk $end
$var reg 1 # reset $end
$scope module uut $end
$var wire 1 " clk $end
$var wire 1 # reset $end
$var wire 1 $ zero $end
$var wire 32 % writeData [31:0] $end
$var wire 2 & resSrc [1:0] $end
$var wire 1 ' regWrite $end
$var wire 1 ( pcSrc $end
$var wire 32 ) pc [31:0] $end
$var wire 1 * memWrite $end
$var wire 32 + instruction [31:0] $end
$var wire 2 , inmSrc [1:0] $end
$var wire 1 - branch $end
$var wire 1 . aluSrc $end
$var wire 3 / ALUcontrol [2:0] $end
$scope module control_unit $end
$var wire 1 . aluSrc $end
$var wire 1 - branch $end
$var wire 3 0 funct3 [2:0] $end
$var wire 1 1 funct7 $end
$var wire 2 2 immSrc [1:0] $end
$var wire 1 * memWrite $end
$var wire 7 3 op [6:0] $end
$var wire 1 ( pcSrc $end
$var wire 1 ' regWrite $end
$var wire 2 4 resultSrc [1:0] $end
$var wire 1 $ zero $end
$var wire 2 5 resultSrc_int [1:0] $end
$var wire 1 6 regWrite_int $end
$var wire 1 7 memWrite_int $end
$var wire 1 8 jump_int $end
$var wire 2 9 immSrc_int [1:0] $end
$var wire 1 : branch_int $end
$var wire 1 ; aluSrc_int $end
$var wire 2 < aluOp [1:0] $end
$var wire 3 = ALUcontrol [2:0] $end
$scope module alu_decoder $end
$var wire 3 > funct3 [2:0] $end
$var wire 1 1 funct7 $end
$var wire 7 ? opcode [6:0] $end
$var wire 2 @ op [1:0] $end
$var parameter 4 A ADD $end
$var parameter 4 B AND $end
$var parameter 4 C BEQ $end
$var parameter 4 D JAL $end
$var parameter 4 E OR $end
$var parameter 4 F SLL $end
$var parameter 4 G SRL $end
$var parameter 4 H SUB $end
$var parameter 4 I XOR $end
$var reg 4 J ALUControl [3:0] $end
$upscope $end
$scope module main_decoder $end
$var wire 7 K op [6:0] $end
$var reg 2 L aluOp [1:0] $end
$var reg 1 ; aluSrc $end
$var reg 1 : branch $end
$var reg 2 M immSrc [1:0] $end
$var reg 1 8 jump $end
$var reg 1 7 memWrite $end
$var reg 1 6 regWrite $end
$var reg 2 N resultSrc [1:0] $end
$upscope $end
$upscope $end
$scope module data_path $end
$var wire 3 O ALUcontrol [2:0] $end
$var wire 1 . aluSrc $end
$var wire 1 " clk $end
$var wire 2 P immSrc [1:0] $end
$var wire 1 * memWrite $end
$var wire 1 ( pcSrc $end
$var wire 1 ' regWrite $end
$var wire 1 # reset $end
$var wire 2 Q resultSrc [1:0] $end
$var wire 32 R writeData [31:0] $end
$var wire 1 $ zero $end
$var wire 32 S srcb [31:0] $end
$var wire 32 T result [31:0] $end
$var wire 32 U readData [31:0] $end
$var wire 32 V rd2 [31:0] $end
$var wire 32 W rd1 [31:0] $end
$var wire 32 X pcTarget [31:0] $end
$var wire 32 Y pcPlus4 [31:0] $end
$var wire 32 Z pcNext [31:0] $end
$var wire 32 [ pc [31:0] $end
$var wire 32 \ instruction [31:0] $end
$var wire 32 ] immExt [31:0] $end
$var wire 32 ^ aluResult [31:0] $end
$scope module alu $end
$var wire 3 _ ALUControl [2:0] $end
$var wire 32 ` srcB [31:0] $end
$var wire 32 a srcA [31:0] $end
$var reg 32 b ALUResult [31:0] $end
$var reg 1 $ zero $end
$upscope $end
$scope module alu_src_mux $end
$var wire 1 . sel $end
$var wire 32 c salMux [31:0] $end
$var wire 32 d e2 [31:0] $end
$var wire 32 e e1 [31:0] $end
$upscope $end
$scope module branch_adder $end
$var wire 32 f res [31:0] $end
$var wire 32 g op2 [31:0] $end
$var wire 32 h op1 [31:0] $end
$upscope $end
$scope module data_memory $end
$var wire 5 i a [4:0] $end
$var wire 1 " clk $end
$var wire 1 * we $end
$var wire 32 j wd [31:0] $end
$var reg 32 k rd [31:0] $end
$upscope $end
$scope module instructionMemory $end
$var wire 32 l readData [31:0] $end
$var wire 32 m address [31:0] $end
$upscope $end
$scope module pc_increment $end
$var wire 32 n op2 [31:0] $end
$var wire 32 o res [31:0] $end
$var wire 32 p op1 [31:0] $end
$upscope $end
$scope module pc_mux $end
$var wire 32 q e1 [31:0] $end
$var wire 32 r e2 [31:0] $end
$var wire 1 ( sel $end
$var wire 32 s salMux [31:0] $end
$upscope $end
$scope module pc_reg $end
$var wire 1 " clk $end
$var wire 32 t pcNext [31:0] $end
$var wire 1 # reset $end
$var reg 32 u pc [31:0] $end
$upscope $end
$scope module regFile $end
$var wire 5 v a1 [4:0] $end
$var wire 5 w a2 [4:0] $end
$var wire 5 x a3 [4:0] $end
$var wire 1 " clk $end
$var wire 32 y rd1 [31:0] $end
$var wire 32 z rd2 [31:0] $end
$var wire 1 ' we3 $end
$var wire 32 { wd3 [31:0] $end
$var integer 32 | i [31:0] $end
$upscope $end
$scope module result_mux $end
$var wire 32 } e1 [31:0] $end
$var wire 32 ~ e2 [31:0] $end
$var wire 32 !" e3 [31:0] $end
$var wire 2 "" sel [1:0] $end
$var wire 32 #" sal [31:0] $end
$upscope $end
$scope module sign_ext $end
$var wire 32 $" immExt [31:0] $end
$var wire 2 %" immSrc [1:0] $end
$var wire 25 &" inm [24:0] $end
$var reg 32 '" aux [31:0] $end
$upscope $end
$upscope $end
$upscope $end
$upscope $end
$enddefinitions $end
$comment Show the parameter values. $end
$dumpall
b100 I
b1 H
b110 G
b101 F
b11 E
b1001 D
b1000 C
b10 B
b0 A
$end
#0
$dumpvars
b11 '"
b110000000001000 &"
b0 %"
b11 $"
b11 #"
b0 ""
b100 !"
bx ~
b11 }
b100000 |
b11 {
b0 z
b0 y
b1000 x
b11 w
b0 v
b0 u
b100 t
b100 s
b11 r
b100 q
b0 p
b100 o
b100 n
b0 m
b1100000000010000010011 l
bx k
b0 j
b11 i
b0 h
b11 g
b11 f
b0 e
b11 d
b11 c
b11 b
b0 a
b11 `
b0 _
b11 ^
b11 ]
b1100000000010000010011 \
b0 [
b100 Z
b100 Y
b11 X
b0 W
b0 V
bx U
b11 T
b11 S
b0 R
b0 Q
b0 P
b0 O
b0 N
b0 M
b10 L
b10011 K
b0 J
b10 @
b10011 ?
b0 >
b0 =
b10 <
1;
0:
b0 9
08
07
16
b0 5
b0 4
b10011 3
b0 2
01
b0 0
b0 /
1.
0-
b0 ,
b1100000000010000010011 +
0*
b0 )
0(
1'
b0 &
b0 %
0$
1#
0"
b0 !
$end
#5
1"
#10
0"
0#
#15
b1 T
b1 {
b1 #"
b1 i
b1 ^
b1 b
b1 }
b1 S
b1 `
b1 c
b1 ]
b1 d
b1 g
b1 $"
b1 '"
b1000 Z
b1000 s
b1000 t
b10000000001001 &"
b1001 x
b1 w
b1000 Y
b1000 o
b1000 q
b1000 !"
b100000000010010010011 +
b100000000010010010011 \
b100000000010010010011 l
b101 X
b101 f
b101 r
b100 !
b100 )
b100 [
b100 h
b100 m
b100 p
b100 u
1"
#20
0"
#25
b10000 T
b10000 {
b10000 #"
b10000 i
b10000 ^
b10000 b
b10000 }
b10000 S
b10000 `
b10000 c
b10000 ]
b10000 d
b10000 g
b10000 $"
b10000 '"
b1100 Z
b1100 s
b1100 t
b100000000000010010 &"
b10010 x
b10000 w
b1100 Y
b1100 o
b1100 q
b1100 !"
b1000000000000100100010011 +
b1000000000000100100010011 \
b1000000000000100100010011 l
b11000 X
b11000 f
b11000 r
b1000 !
b1000 )
b1000 [
b1000 h
b1000 m
b1000 p
b1000 u
1"
#30
0"
#35
b11 T
b11 {
b11 #"
b11 i
b11 /
b11 =
b11 O
b11 _
b1 S
b1 `
b1 c
b11 ^
b11 b
b11 }
b11 J
bx ,
bx 2
bx P
bx %"
bx 9
bx M
b10 <
b10 @
b10 L
0.
0;
1'
16
b10000 Z
b10000 s
b10000 t
b10010100011000101 &"
b101 x
b1 %
b1 R
b1 V
b1 e
b1 j
b1 z
b1001 w
b11 W
b11 a
b11 y
b1000 v
b110 0
b110 >
b110011 3
b110011 ?
b110011 K
b10000 Y
b10000 o
b10000 q
b10000 !"
b100101000110001010110011 +
b100101000110001010110011 \
b100101000110001010110011 l
b11100 X
b11100 f
b11100 r
b1100 !
b1100 )
b1100 [
b1100 h
b1100 m
b1100 p
b1100 u
1"
#40
0"
#45
b1 T
b1 {
b1 #"
b1 i
b1 ^
b1 b
b1 }
b10 /
b10 =
b10 O
b10 _
b10 J
b10100 Z
b10100 s
b10100 t
b10010100011100110 &"
b110 x
b111 0
b111 >
b10100 Y
b10100 o
b10100 q
b10100 !"
b100101000111001100110011 +
b100101000111001100110011 \
b100101000111001100110011 l
b100000 X
b100000 f
b100000 r
b10000 !
b10000 )
b10000 [
b10000 h
b10000 m
b10000 p
b10000 u
1"
#50
0"
#55
b100 T
b100 {
b100 #"
b100 i
b100 ^
b100 b
b100 }
b0 /
b0 =
b0 O
b0 _
b0 J
b11000 Z
b11000 s
b11000 t
b10010100000000111 &"
b111 x
b0 0
b0 >
b11000 Y
b11000 o
b11000 q
b11000 !"
b100101000000001110110011 +
b100101000000001110110011 \
b100101000000001110110011 l
b100100 X
b100100 f
b100100 r
b10100 !
b10100 )
b10100 [
b10100 h
b10100 m
b10100 p
b10100 u
1"
#60
0"
#65
b0 T
b0 {
b0 #"
b0 i
1$
b0 ^
b0 b
b0 }
bx /
bx =
bx O
bx _
bx J
b11100 Z
b11100 s
b11100 t
b100000010010100000011100 &"
b11100 x
11
b11100 Y
b11100 o
b11100 q
b11100 !"
b1000000100101000000111000110011 +
b1000000100101000000111000110011 \
b1000000100101000000111000110011 l
b101000 X
b101000 f
b101000 r
b11000 !
b11000 )
b11000 [
b11000 h
b11000 m
b11000 p
b11000 u
1"
#70
0"
#75
b11 S
b11 `
b11 c
b100000 Z
b100000 s
b100000 t
b100000010000100100011101 &"
b11101 x
b11 %
b11 R
b11 V
b11 e
b11 j
b11 z
b1000 w
b1 W
b1 a
b1 y
b1001 v
b100000 Y
b100000 o
b100000 q
b100000 !"
b1000000100001001000111010110011 +
b1000000100001001000111010110011 \
b1000000100001001000111010110011 l
b101100 X
b101100 f
b101100 r
b11100 !
b11100 )
b11100 [
b11100 h
b11100 m
b11100 p
b11100 u
1"
#80
0"
#85
b1 S
b1 `
b1 c
b100100 Z
b100100 s
b100100 t
b10010100001011110 &"
b11110 x
b1 %
b1 R
b1 V
b1 e
b1 j
b1 z
b1001 w
b11 W
b11 a
b11 y
b1000 v
01
b10 0
b10 >
b100100 Y
b100100 o
b100100 q
b100100 !"
b100101000010111100110011 +
b100101000010111100110011 \
b100101000010111100110011 l
b110000 X
b110000 f
b110000 r
b100000 !
b100000 )
b100000 [
b100000 h
b100000 m
b100000 p
b100000 u
1"
#90
0"
#95
b11 S
b11 `
b11 c
b101000 Z
b101000 s
b101000 t
b10000100101011111 &"
b11111 x
b11 %
b11 R
b11 V
b11 e
b11 j
b11 z
b1000 w
b1 W
b1 a
b1 y
b1001 v
b101000 Y
b101000 o
b101000 q
b101000 !"
b100001001010111110110011 +
b100001001010111110110011 \
b100001001010111110110011 l
b110100 X
b110100 f
b110100 r
b100100 !
b100100 )
b100100 [
b100100 h
b100100 m
b100100 p
b100100 u
1"
#100
0"
#105
b0 S
b0 `
b0 c
b101100 Z
b101100 s
b101100 t
b111010100101011111 &"
b0 %
b0 R
b0 V
b0 e
b0 j
b0 z
b11101 w
b101100 Y
b101100 o
b101100 q
b101100 !"
b1110101001010111110110011 +
b1110101001010111110110011 \
b1110101001010111110110011 l
b111000 X
b111000 f
b111000 r
b101000 !
b101000 )
b101000 [
b101000 h
b101000 m
b101000 p
b101000 u
1"
#110
0"
#115
b1 T
b1 {
b1 #"
b1 i
0$
b1 ^
b1 b
b1 }
b0 /
b0 =
b0 O
b0 _
b1 S
b1 `
b1 c
b1 ]
b1 d
b1 g
b1 $"
b1 '"
b0 J
1.
1;
b10 <
b10 @
b10 L
b0 ,
b0 2
b0 P
b0 %"
b0 9
b0 M
1'
16
b110000 Z
b110000 s
b110000 t
b10000000000101 &"
b101 x
b1 w
b0 W
b0 a
b0 y
b0 v
b0 0
b0 >
b10011 3
b10011 ?
b10011 K
b110000 Y
b110000 o
b110000 q
b110000 !"
b100000000001010010011 +
b100000000001010010011 \
b100000000001010010011 l
b101101 X
b101101 f
b101101 r
b101100 !
b101100 )
b101100 [
b101100 h
b101100 m
b101100 p
b101100 u
1"
#120
0"
#125
b0 T
b0 {
b0 #"
b0 i
1$
b0 ^
b0 b
b0 }
b0 S
b0 `
b0 c
b0 ]
b0 d
b0 g
b0 $"
b0 '"
b110100 Z
b110100 s
b110100 t
b110 &"
b110 x
b0 w
b110100 Y
b110100 o
b110100 q
b110100 !"
b1100010011 +
b1100010011 \
b1100010011 l
b110000 X
b110000 f
b110000 r
b110000 !
b110000 )
b110000 [
b110000 h
b110000 m
b110000 p
b110000 u
1"
#130
0"
#135
b10001 i
bx T
bx {
bx #"
b10000 S
b10000 `
b10000 c
b10000 ]
b10000 d
b10000 g
b10000 $"
b10000 '"
0$
b10001 ^
b10001 b
b10001 }
b1000 J
1-
1:
bx &
bx 4
bx Q
bx ""
bx 5
bx N
b10 ,
b10 2
b10 P
b10 %"
b10 9
b10 M
b1 <
b1 @
b1 L
0.
0;
0'
06
b111000 Z
b111000 s
b111000 t
b100100010100010000 &"
b10000 x
b10000 %
b10000 R
b10000 V
b10000 e
b10000 j
b10000 z
b10010 w
b1 W
b1 a
b1 y
b101 v
b1100011 3
b1100011 ?
b1100011 K
b111000 Y
b111000 o
b111000 q
b111000 !"
b1001000101000100001100011 +
b1001000101000100001100011 \
b1001000101000100001100011 l
b1000100 X
b1000100 f
b1000100 r
b110100 !
b110100 )
b110100 [
b110100 h
b110100 m
b110100 p
b110100 u
1"
#140
0"
#145
b10 i
b10 ^
b10 b
b10 }
b10 T
b10 {
b10 #"
b1 S
b1 `
b1 c
b0 J
1'
16
b10 <
b10 @
b10 L
0-
0:
b0 &
b0 4
b0 Q
b0 ""
b0 5
b0 N
bx ,
bx 2
bx P
bx %"
bx 9
bx M
b111100 Z
b111100 s
b111100 t
b1010010100000101 &"
b101 x
b1 %
b1 R
b1 V
b1 e
b1 j
b1 z
b101 w
b110011 3
b110011 ?
b110011 K
b111100 Y
b111100 o
b111100 q
b111100 !"
b10100101000001010110011 +
b10100101000001010110011 \
b10100101000001010110011 l
b1001000 X
b1001000 f
b1001000 r
b111000 !
b111000 )
b111000 [
b111000 h
b111000 m
b111000 p
b111000 u
1"
#150
0"
#155
b1 T
b1 {
b1 #"
b1 i
b1 ]
b1 d
b1 g
b1 $"
b1 '"
1.
1;
b10 <
b10 @
b10 L
b0 ,
b0 2
b0 P
b0 %"
b0 9
b0 M
1'
16
0$
b1 ^
b1 b
b1 }
b1 S
b1 `
b1 c
b1000000 Z
b1000000 s
b1000000 t
b10011000000110 &"
b110 x
b1 w
b110 v
b10011 3
b10011 ?
b10011 K
b0 W
b0 a
b0 y
b0 %
b0 R
b0 V
b0 e
b0 j
b0 z
b1000000 Y
b1000000 o
b1000000 q
b1000000 !"
b100110000001100010011 +
b100110000001100010011 \
b100110000001100010011 l
b111101 X
b111101 f
b111101 r
b111100 !
b111100 )
b111100 [
b111100 h
b111100 m
b111100 p
b111100 u
1"
#160
0"
#165
b0 i
1$
b0 ^
b0 b
b0 }
bx /
bx =
bx O
bx _
1(
b1000100 T
b1000100 {
b1000100 #"
bx0x00 S
bx0x00 `
bx0x00 c
b11111111111111111111111111110100 ]
b11111111111111111111111111110100 d
b11111111111111111111111111110100 g
b11111111111111111111111111110100 $"
b11111111111111111111111111110100 '"
bx J
18
b10 &
b10 4
b10 Q
b10 ""
b10 5
b10 N
b11 ,
b11 2
b11 P
b11 %"
b11 9
b11 M
bx <
bx @
bx L
x.
x;
1'
16
b110100 Z
b110100 s
b110100 t
b1111111101011111111100000 &"
b0 x
b10101 w
b11111 v
11
b111 0
b111 >
b1101111 3
b1101111 ?
b1101111 K
b0 W
b0 a
b0 y
b1000100 Y
b1000100 o
b1000100 q
b1000100 !"
b11111111010111111111000001101111 +
b11111111010111111111000001101111 \
b11111111010111111111000001101111 l
b110100 X
b110100 f
b110100 r
b1000000 !
b1000000 )
b1000000 [
b1000000 h
b1000000 m
b1000000 p
b1000000 u
1"
#170
0"
#175
b10010 i
0$
b10010 ^
b10010 b
b10010 }
b0 /
b0 =
b0 O
b0 _
0(
bx T
bx {
bx #"
b10000 ]
b10000 d
b10000 g
b10000 $"
b10000 '"
b10000 S
b10000 `
b10000 c
b1000 J
1-
1:
08
b1 <
b1 @
b1 L
bx &
bx 4
bx Q
bx ""
bx 5
bx N
0.
0;
b10 ,
b10 2
b10 P
b10 %"
b10 9
b10 M
0'
06
b100100010100010000 &"
b10000 x
b10000 %
b10000 R
b10000 V
b10000 e
b10000 j
b10000 z
b10010 w
b10 W
b10 a
b10 y
b101 v
01
b0 0
b0 >
b1100011 3
b1100011 ?
b1100011 K
b111000 Z
b111000 s
b111000 t
b111000 Y
b111000 o
b111000 q
b111000 !"
b1001000101000100001100011 +
b1001000101000100001100011 \
b1001000101000100001100011 l
b1000100 X
b1000100 f
b1000100 r
b110100 !
b110100 )
b110100 [
b110100 h
b110100 m
b110100 p
b110100 u
1"
#180
0"
#185
b100 i
b100 ^
b100 b
b100 }
b100 T
b100 {
b100 #"
b10 S
b10 `
b10 c
b0 J
1'
16
b10 <
b10 @
b10 L
0-
0:
b0 &
b0 4
b0 Q
b0 ""
b0 5
b0 N
bx ,
bx 2
bx P
bx %"
bx 9
bx M
b111100 Z
b111100 s
b111100 t
b1010010100000101 &"
b101 x
b10 %
b10 R
b10 V
b10 e
b10 j
b10 z
b101 w
b110011 3
b110011 ?
b110011 K
b111100 Y
b111100 o
b111100 q
b111100 !"
b10100101000001010110011 +
b10100101000001010110011 \
b10100101000001010110011 l
b1001000 X
b1001000 f
b1001000 r
b111000 !
b111000 )
b111000 [
b111000 h
b111000 m
b111000 p
b111000 u
1"
#190
0"
#195
b10 T
b10 {
b10 #"
b10 i
b1 ]
b1 d
b1 g
b1 $"
b1 '"
1.
1;
b10 <
b10 @
b10 L
b0 ,
b0 2
b0 P
b0 %"
b0 9
b0 M
1'
16
b10 ^
b10 b
b10 }
b1 S
b1 `
b1 c
b1000000 Z
b1000000 s
b1000000 t
b10011000000110 &"
b110 x
b1 w
b110 v
b10011 3
b10011 ?
b10011 K
b1 W
b1 a
b1 y
b0 %
b0 R
b0 V
b0 e
b0 j
b0 z
b1000000 Y
b1000000 o
b1000000 q
b1000000 !"
b100110000001100010011 +
b100110000001100010011 \
b100110000001100010011 l
b111101 X
b111101 f
b111101 r
b111100 !
b111100 )
b111100 [
b111100 h
b111100 m
b111100 p
b111100 u
1"
#200
0"
#205
1$
bx /
bx =
bx O
bx _
1(
bx0x00 S
bx0x00 `
bx0x00 c
b1000100 T
b1000100 {
b1000100 #"
b0 i
b11111111111111111111111111110100 ]
b11111111111111111111111111110100 d
b11111111111111111111111111110100 g
b11111111111111111111111111110100 $"
b11111111111111111111111111110100 '"
bx J
18
b10 &
b10 4
b10 Q
b10 ""
b10 5
b10 N
b11 ,
b11 2
b11 P
b11 %"
b11 9
b11 M
bx <
bx @
bx L
x.
x;
1'
16
b0 ^
b0 b
b0 }
b110100 Z
b110100 s
b110100 t
b1111111101011111111100000 &"
b0 x
b10101 w
b11111 v
11
b111 0
b111 >
b1101111 3
b1101111 ?
b1101111 K
b0 W
b0 a
b0 y
b1000100 Y
b1000100 o
b1000100 q
b1000100 !"
b11111111010111111111000001101111 +
b11111111010111111111000001101111 \
b11111111010111111111000001101111 l
b110100 X
b110100 f
b110100 r
b1000000 !
b1000000 )
b1000000 [
b1000000 h
b1000000 m
b1000000 p
b1000000 u
1"
#210
0"
#215
b10100 i
0$
b10100 ^
b10100 b
b10100 }
b0 /
b0 =
b0 O
b0 _
0(
bx T
bx {
bx #"
b10000 ]
b10000 d
b10000 g
b10000 $"
b10000 '"
b10000 S
b10000 `
b10000 c
b1000 J
1-
1:
08
b1 <
b1 @
b1 L
bx &
bx 4
bx Q
bx ""
bx 5
bx N
0.
0;
b10 ,
b10 2
b10 P
b10 %"
b10 9
b10 M
0'
06
b100100010100010000 &"
b10000 x
b10000 %
b10000 R
b10000 V
b10000 e
b10000 j
b10000 z
b10010 w
b100 W
b100 a
b100 y
b101 v
01
b0 0
b0 >
b1100011 3
b1100011 ?
b1100011 K
b111000 Z
b111000 s
b111000 t
b111000 Y
b111000 o
b111000 q
b111000 !"
b1001000101000100001100011 +
b1001000101000100001100011 \
b1001000101000100001100011 l
b1000100 X
b1000100 f
b1000100 r
b110100 !
b110100 )
b110100 [
b110100 h
b110100 m
b110100 p
b110100 u
1"
#220
0"
#225
b1000 i
b1000 ^
b1000 b
b1000 }
b1000 T
b1000 {
b1000 #"
b100 S
b100 `
b100 c
b0 J
1'
16
b10 <
b10 @
b10 L
0-
0:
b0 &
b0 4
b0 Q
b0 ""
b0 5
b0 N
bx ,
bx 2
bx P
bx %"
bx 9
bx M
b111100 Z
b111100 s
b111100 t
b1010010100000101 &"
b101 x
b100 %
b100 R
b100 V
b100 e
b100 j
b100 z
b101 w
b110011 3
b110011 ?
b110011 K
b111100 Y
b111100 o
b111100 q
b111100 !"
b10100101000001010110011 +
b10100101000001010110011 \
b10100101000001010110011 l
b1001000 X
b1001000 f
b1001000 r
b111000 !
b111000 )
b111000 [
b111000 h
b111000 m
b111000 p
b111000 u
1"
#230
0"
#235
b11 T
b11 {
b11 #"
b11 i
b1 ]
b1 d
b1 g
b1 $"
b1 '"
1.
1;
b10 <
b10 @
b10 L
b0 ,
b0 2
b0 P
b0 %"
b0 9
b0 M
1'
16
b11 ^
b11 b
b11 }
b1 S
b1 `
b1 c
b1000000 Z
b1000000 s
b1000000 t
b10011000000110 &"
b110 x
b1 w
b110 v
b10011 3
b10011 ?
b10011 K
b10 W
b10 a
b10 y
b0 %
b0 R
b0 V
b0 e
b0 j
b0 z
b1000000 Y
b1000000 o
b1000000 q
b1000000 !"
b100110000001100010011 +
b100110000001100010011 \
b100110000001100010011 l
b111101 X
b111101 f
b111101 r
b111100 !
b111100 )
b111100 [
b111100 h
b111100 m
b111100 p
b111100 u
1"
#240
0"
#245
1$
bx /
bx =
bx O
bx _
1(
bx0x00 S
bx0x00 `
bx0x00 c
b1000100 T
b1000100 {
b1000100 #"
b0 i
b11111111111111111111111111110100 ]
b11111111111111111111111111110100 d
b11111111111111111111111111110100 g
b11111111111111111111111111110100 $"
b11111111111111111111111111110100 '"
bx J
18
b10 &
b10 4
b10 Q
b10 ""
b10 5
b10 N
b11 ,
b11 2
b11 P
b11 %"
b11 9
b11 M
bx <
bx @
bx L
x.
x;
1'
16
b0 ^
b0 b
b0 }
b110100 Z
b110100 s
b110100 t
b1111111101011111111100000 &"
b0 x
b10101 w
b11111 v
11
b111 0
b111 >
b1101111 3
b1101111 ?
b1101111 K
b0 W
b0 a
b0 y
b1000100 Y
b1000100 o
b1000100 q
b1000100 !"
b11111111010111111111000001101111 +
b11111111010111111111000001101111 \
b11111111010111111111000001101111 l
b110100 X
b110100 f
b110100 r
b1000000 !
b1000000 )
b1000000 [
b1000000 h
b1000000 m
b1000000 p
b1000000 u
1"
#250
0"
#255
b11000 i
0$
b11000 ^
b11000 b
b11000 }
b0 /
b0 =
b0 O
b0 _
0(
bx T
bx {
bx #"
b10000 ]
b10000 d
b10000 g
b10000 $"
b10000 '"
b10000 S
b10000 `
b10000 c
b1000 J
1-
1:
08
b1 <
b1 @
b1 L
bx &
bx 4
bx Q
bx ""
bx 5
bx N
0.
0;
b10 ,
b10 2
b10 P
b10 %"
b10 9
b10 M
0'
06
b100100010100010000 &"
b10000 x
b10000 %
b10000 R
b10000 V
b10000 e
b10000 j
b10000 z
b10010 w
b1000 W
b1000 a
b1000 y
b101 v
01
b0 0
b0 >
b1100011 3
b1100011 ?
b1100011 K
b111000 Z
b111000 s
b111000 t
b111000 Y
b111000 o
b111000 q
b111000 !"
b1001000101000100001100011 +
b1001000101000100001100011 \
b1001000101000100001100011 l
b1000100 X
b1000100 f
b1000100 r
b110100 !
b110100 )
b110100 [
b110100 h
b110100 m
b110100 p
b110100 u
1"
#260
0"
#265
b10000 i
b10000 ^
b10000 b
b10000 }
b10000 T
b10000 {
b10000 #"
b1000 S
b1000 `
b1000 c
b0 J
1'
16
b10 <
b10 @
b10 L
0-
0:
b0 &
b0 4
b0 Q
b0 ""
b0 5
b0 N
bx ,
bx 2
bx P
bx %"
bx 9
bx M
b111100 Z
b111100 s
b111100 t
b1010010100000101 &"
b101 x
b1000 %
b1000 R
b1000 V
b1000 e
b1000 j
b1000 z
b101 w
b110011 3
b110011 ?
b110011 K
b111100 Y
b111100 o
b111100 q
b111100 !"
b10100101000001010110011 +
b10100101000001010110011 \
b10100101000001010110011 l
b1001000 X
b1001000 f
b1001000 r
b111000 !
b111000 )
b111000 [
b111000 h
b111000 m
b111000 p
b111000 u
1"
#270
0"
#275
b100 T
b100 {
b100 #"
b100 i
b1 ]
b1 d
b1 g
b1 $"
b1 '"
1.
1;
b10 <
b10 @
b10 L
b0 ,
b0 2
b0 P
b0 %"
b0 9
b0 M
1'
16
b100 ^
b100 b
b100 }
b1 S
b1 `
b1 c
b1000000 Z
b1000000 s
b1000000 t
b10011000000110 &"
b110 x
b1 w
b110 v
b10011 3
b10011 ?
b10011 K
b11 W
b11 a
b11 y
b0 %
b0 R
b0 V
b0 e
b0 j
b0 z
b1000000 Y
b1000000 o
b1000000 q
b1000000 !"
b100110000001100010011 +
b100110000001100010011 \
b100110000001100010011 l
b111101 X
b111101 f
b111101 r
b111100 !
b111100 )
b111100 [
b111100 h
b111100 m
b111100 p
b111100 u
1"
#280
0"
#285
1$
bx /
bx =
bx O
bx _
1(
bx0x00 S
bx0x00 `
bx0x00 c
b1000100 T
b1000100 {
b1000100 #"
b0 i
b11111111111111111111111111110100 ]
b11111111111111111111111111110100 d
b11111111111111111111111111110100 g
b11111111111111111111111111110100 $"
b11111111111111111111111111110100 '"
bx J
18
b10 &
b10 4
b10 Q
b10 ""
b10 5
b10 N
b11 ,
b11 2
b11 P
b11 %"
b11 9
b11 M
bx <
bx @
bx L
x.
x;
1'
16
b0 ^
b0 b
b0 }
b110100 Z
b110100 s
b110100 t
b1111111101011111111100000 &"
b0 x
b10101 w
b11111 v
11
b111 0
b111 >
b1101111 3
b1101111 ?
b1101111 K
b0 W
b0 a
b0 y
b1000100 Y
b1000100 o
b1000100 q
b1000100 !"
b11111111010111111111000001101111 +
b11111111010111111111000001101111 \
b11111111010111111111000001101111 l
b110100 X
b110100 f
b110100 r
b1000000 !
b1000000 )
b1000000 [
b1000000 h
b1000000 m
b1000000 p
b1000000 u
1"
#290
0"
#295
0$
b100000 ^
b100000 b
b100000 }
b0 /
b0 =
b0 O
b0 _
0(
bx T
bx {
bx #"
b10000 ]
b10000 d
b10000 g
b10000 $"
b10000 '"
b10000 S
b10000 `
b10000 c
b1000 J
1-
1:
08
b1 <
b1 @
b1 L
bx &
bx 4
bx Q
bx ""
bx 5
bx N
0.
0;
b10 ,
b10 2
b10 P
b10 %"
b10 9
b10 M
0'
06
b100100010100010000 &"
b10000 x
b10000 %
b10000 R
b10000 V
b10000 e
b10000 j
b10000 z
b10010 w
b10000 W
b10000 a
b10000 y
b101 v
01
b0 0
b0 >
b1100011 3
b1100011 ?
b1100011 K
b111000 Z
b111000 s
b111000 t
b111000 Y
b111000 o
b111000 q
b111000 !"
b1001000101000100001100011 +
b1001000101000100001100011 \
b1001000101000100001100011 l
b1000100 X
b1000100 f
b1000100 r
b110100 !
b110100 )
b110100 [
b110100 h
b110100 m
b110100 p
b110100 u
1"
#300
0"
#305
b100000 T
b100000 {
b100000 #"
b0 J
1'
16
b10 <
b10 @
b10 L
0-
0:
b0 &
b0 4
b0 Q
b0 ""
b0 5
b0 N
bx ,
bx 2
bx P
bx %"
bx 9
bx M
b111100 Z
b111100 s
b111100 t
b1010010100000101 &"
b101 x
b101 w
b110011 3
b110011 ?
b110011 K
b111100 Y
b111100 o
b111100 q
b111100 !"
b10100101000001010110011 +
b10100101000001010110011 \
b10100101000001010110011 l
b1001000 X
b1001000 f
b1001000 r
b111000 !
b111000 )
b111000 [
b111000 h
b111000 m
b111000 p
b111000 u
1"
#310
0"
#315
b101 T
b101 {
b101 #"
b101 i
b1 ]
b1 d
b1 g
b1 $"
b1 '"
1.
1;
b10 <
b10 @
b10 L
b0 ,
b0 2
b0 P
b0 %"
b0 9
b0 M
1'
16
b101 ^
b101 b
b101 }
b1 S
b1 `
b1 c
b1000000 Z
b1000000 s
b1000000 t
b10011000000110 &"
b110 x
b1 w
b110 v
b10011 3
b10011 ?
b10011 K
b100 W
b100 a
b100 y
b0 %
b0 R
b0 V
b0 e
b0 j
b0 z
b1000000 Y
b1000000 o
b1000000 q
b1000000 !"
b100110000001100010011 +
b100110000001100010011 \
b100110000001100010011 l
b111101 X
b111101 f
b111101 r
b111100 !
b111100 )
b111100 [
b111100 h
b111100 m
b111100 p
b111100 u
1"
#320
0"
