inutiles/top_tb.vcd
$date
	Wed Nov 13 10:27:33 2024
$end
$version
	Icarus Verilog
$end
$timescale
	1ps
$end
$scope module top_tb $end
$var reg 1 ! clk $end
$var reg 1 " reset $end
$scope module uut $end
$var wire 1 ! clk $end
$var wire 1 " reset $end
$var wire 32 # pc [31:0] $end
$var wire 32 $ instruction [31:0] $end
$scope module processor $end
$var wire 1 ! clk $end
$var wire 1 " reset $end
$var wire 1 % zero $end
$var wire 32 & writeData [31:0] $end
$var wire 2 ' resSrc [1:0] $end
$var wire 1 ( regWrite $end
$var wire 1 ) pcSrc $end
$var wire 32 * pc [31:0] $end
$var wire 1 + memWrite $end
$var wire 32 , instruction [31:0] $end
$var wire 2 - inmSrc [1:0] $end
$var wire 1 . branch $end
$var wire 1 / aluSrc $end
$var wire 32 0 aluResult [31:0] $end
$var wire 3 1 ALUcontrol [2:0] $end
$scope module control_unit $end
$var wire 1 / aluSrc $end
$var wire 1 . branch $end
$var wire 3 2 funct3 [2:0] $end
$var wire 1 3 funct7 $end
$var wire 2 4 inmSrc [1:0] $end
$var wire 1 + memWrite $end
$var wire 7 5 op [6:0] $end
$var wire 1 ) pcSrc $end
$var wire 1 ( regWrite $end
$var wire 2 6 resSrc [1:0] $end
$var wire 1 % zero $end
$var wire 2 7 resSrc_int [1:0] $end
$var wire 1 8 regWrite_int $end
$var wire 1 9 memWrite_int $end
$var wire 2 : inmSrc_int [1:0] $end
$var wire 1 ; branch_int $end
$var wire 1 < aluSrc_int $end
$var wire 2 = aluOp [1:0] $end
$var wire 3 > ALUcontrol [2:0] $end
$scope module alu_decoder $end
$var wire 3 ? f3 [2:0] $end
$var wire 1 3 f7 $end
$var wire 2 @ aluOp [1:0] $end
$var reg 3 A aluControl [2:0] $end
$upscope $end
$scope module main_decoder $end
$var wire 7 B op [6:0] $end
$var reg 2 C aluOp [1:0] $end
$var reg 1 < aluSrc $end
$var reg 1 ; branch $end
$var reg 2 D inmSrc [1:0] $end
$var reg 1 9 memWrite $end
$var reg 1 8 regWrite $end
$var reg 2 E resSrc [1:0] $end
$upscope $end
$upscope $end
$scope module data_path $end
$var wire 3 F ALUcontrol [2:0] $end
$var wire 1 / aluSrc $end
$var wire 1 . branch $end
$var wire 1 ! clk $end
$var wire 2 G inmSrc [1:0] $end
$var wire 1 + memWrite $end
$var wire 1 ) pcSrc $end
$var wire 1 ( regWrite $end
$var wire 2 H resSrc [1:0] $end
$var wire 1 " reset $end
$var wire 1 % zero $end
$var wire 32 I writeData [31:0] $end
$var wire 32 J srcB [31:0] $end
$var wire 32 K srcA [31:0] $end
$var wire 32 L signExtImm [31:0] $end
$var wire 32 M readData [31:0] $end
$var wire 32 N pcPlus4 [31:0] $end
$var wire 32 O pcNext [31:0] $end
$var wire 32 P pc [31:0] $end
$var wire 32 Q instruction [31:0] $end
$var wire 32 R branchTarget [31:0] $end
$var wire 32 S aluResult [31:0] $end
$scope module alu $end
$var wire 3 T ALUControl [2:0] $end
$var wire 32 U srcB [31:0] $end
$var wire 32 V srcA [31:0] $end
$var reg 32 W result [31:0] $end
$var reg 1 % zero $end
$upscope $end
$scope module alu_src_mux $end
$var wire 1 / sel $end
$var wire 32 X salMux [31:0] $end
$var wire 32 Y e2 [31:0] $end
$var wire 32 Z e1 [31:0] $end
$upscope $end
$scope module branch_adder $end
$var wire 32 [ res [31:0] $end
$var wire 32 \ op2 [31:0] $end
$var wire 32 ] op1 [31:0] $end
$upscope $end
$scope module data_memory $end
$var wire 5 ^ addresDM [4:0] $end
$var wire 1 ! clk $end
$var wire 1 + we $end
$var wire 32 _ wd [31:0] $end
$var reg 32 ` rd [31:0] $end
$upscope $end
$scope module pc_increment $end
$var wire 32 a op2 [31:0] $end
$var wire 32 b res [31:0] $end
$var wire 32 c op1 [31:0] $end
$upscope $end
$scope module pc_mux $end
$var wire 32 d e1 [31:0] $end
$var wire 32 e e2 [31:0] $end
$var wire 1 ) sel $end
$var wire 32 f salMux [31:0] $end
$upscope $end
$scope module pc_reg $end
$var wire 1 ! clk $end
$var wire 32 g pcNext [31:0] $end
$var wire 1 " reset $end
$var reg 32 h pc [31:0] $end
$upscope $end
$scope module regFile $end
$var wire 1 ! clk $end
$var wire 5 i rd [4:0] $end
$var wire 32 j readData1 [31:0] $end
$var wire 32 k readData2 [31:0] $end
$var wire 5 l rs1 [4:0] $end
$var wire 5 m rs2 [4:0] $end
$var wire 1 ( we $end
$var wire 32 n writeData [31:0] $end
$var integer 32 o i [31:0] $end
$upscope $end
$scope module sign_ext $end
$var wire 25 p inm [24:0] $end
$var wire 2 q src [1:0] $end
$var reg 32 r inmExt [31:0] $end
$upscope $end
$upscope $end
$upscope $end
$scope module rom_inst $end
$var wire 5 s address [4:0] $end
$var reg 32 t data [31:0] $end
$upscope $end
$upscope $end
$upscope $end
$enddefinitions $end
$comment Show the parameter values. $end
$dumpall
$end
#0
$dumpvars
b1100000000010000010011 t
b0 s
b11 r
b0 q
b110000000001000 p
b100000 o
b11 n
b11 m
b0 l
b0 k
b0 j
b1000 i
b0 h
b100 g
b100 f
b11 e
b100 d
b0 c
b100 b
b100 a
bx `
b0 _
b11 ^
b0 ]
b11 \
b11 [
b0 Z
b11 Y
b11 X
b11 W
b0 V
b11 U
b0 T
b11 S
b11 R
b1100000000010000010011 Q
b0 P
b100 O
b100 N
bx M
b11 L
b0 K
b0 J
b11 I
b0 H
b0 G
b0 F
b0 E
b0 D
b0 C
b10011 B
b0 A
b0 @
b0 ?
b0 >
b0 =
1<
0;
b0 :
09
18
b0 7
b0 6
b10011 5
b0 4
03
b0 2
b0 1
b11 0
1/
0.
b0 -
b1100000000010000010011 ,
0+
b0 *
0)
1(
b0 '
b11 &
0%
b1100000000010000010011 $
b0 #
1"
0!
$end
#5000
1!
#10000
0!
0"
#15000
b0 ^
1%
b0 0
b0 S
b0 W
b0 &
b0 I
b0 U
b0 X
b0 n
b0 L
b0 Y
b0 \
b0 r
b10 1
b10 >
b10 A
b10 F
b10 T
b10 =
b10 @
b10 C
bx -
bx 4
bx G
bx q
bx :
bx D
0/
0<
1(
18
b10010100011100110 p
b110 i
b1001 m
b11 K
b11 V
b11 j
b1000 l
b111 2
b111 ?
b110011 5
b110011 B
b100101000111001100110011 $
b100101000111001100110011 ,
b100101000111001100110011 Q
b100101000111001100110011 t
b1000 O
b1000 f
b1000 g
b100 s
b1000 N
b1000 b
b1000 d
b100 R
b100 [
b100 e
b100 #
b100 *
b100 P
b100 ]
b100 c
b100 h
1!
#20000
0!
#25000
b100 1
b100 >
b100 A
b100 F
b100 T
b10010100001011110 p
b11110 i
b10 2
b10 ?
b100101000010111100110011 $
b100101000010111100110011 ,
b100101000010111100110011 Q
b100101000010111100110011 t
b1100 O
b1100 f
b1100 g
b1000 s
b1100 N
b1100 b
b1100 d
b1000 R
b1000 [
b1000 e
b1000 #
b1000 *
b1000 P
b1000 ]
b1000 c
b1000 h
1!
#30000
0!
#35000
b0 1
b0 >
b0 A
b0 F
b0 T
1/
1<
b0 =
b0 @
b0 C
b0 -
b0 4
b0 G
b0 q
b0 :
b0 D
1(
18
b110 p
b110 i
b0 m
b0 K
b0 V
b0 j
b0 l
b0 2
b0 ?
b10011 5
b10011 B
b1100010011 $
b1100010011 ,
b1100010011 Q
b1100010011 t
b10000 O
b10000 f
b10000 g
b1100 s
b10000 N
b10000 b
b10000 d
b1100 R
b1100 [
b1100 e
b1100 #
b1100 *
b1100 P
b1100 ]
b1100 c
b1100 h
1!
#40000
0!
#45000
1)
b1111111111111111111101011 L
b1111111111111111111101011 Y
b1111111111111111111101011 \
b1111111111111111111101011 r
1.
1;
b10 '
b10 6
b10 H
b10 7
b10 E
b11 -
b11 4
b11 G
b11 q
b11 :
b11 D
0/
0<
1(
18
b1111111101011111111100000 p
b0 i
b10101 m
b11111 l
13
b111 2
b111 ?
b1101111 5
b1101111 B
b11111111010111111111000001101111 $
b11111111010111111111000001101111 ,
b11111111010111111111000001101111 Q
b11111111010111111111000001101111 t
b1111111111111111111111011 O
b1111111111111111111111011 f
b1111111111111111111111011 g
b10000 s
b10100 N
b10100 b
b10100 d
b1111111111111111111111011 R
b1111111111111111111111011 [
b1111111111111111111111011 e
b10000 #
b10000 *
b10000 P
b10000 ]
b10000 c
b10000 h
1!
#50000
0!
#55000
0)
b0 L
b0 Y
b0 \
b0 r
1/
1<
0.
0;
b1 '
b1 6
b1 H
b1 7
b1 E
b0 -
b0 4
b0 G
b0 q
b0 :
b0 D
1(
18
b1000101 p
b101 i
b0 m
b0 l
03
b10 2
b10 ?
b11 5
b11 B
b10001010000011 $
b10001010000011 ,
b10001010000011 Q
b10001010000011 t
b1111111111111111111111111 O
b1111111111111111111111111 f
b1111111111111111111111111 g
b11011 s
b1111111111111111111111111 N
b1111111111111111111111111 b
b1111111111111111111111111 d
b1111111111111111111111011 R
b1111111111111111111111011 [
b1111111111111111111111011 e
b1111111111111111111111011 #
b1111111111111111111111011 *
b1111111111111111111111011 P
b1111111111111111111111011 ]
b1111111111111111111111011 c
b1111111111111111111111011 h
1!
#60000
0!
#65000
b0 '
b0 6
b0 H
b0 7
b0 E
0/
0<
0(
08
b0 p
b0 i
b0 2
b0 ?
b0 5
b0 B
b0 $
b0 ,
b0 Q
b0 t
b10000000000000000000000011 O
b10000000000000000000000011 f
b10000000000000000000000011 g
b11111 s
b10000000000000000000000011 N
b10000000000000000000000011 b
b10000000000000000000000011 d
b1111111111111111111111111 R
b1111111111111111111111111 [
b1111111111111111111111111 e
b1111111111111111111111111 #
b1111111111111111111111111 *
b1111111111111111111111111 P
b1111111111111111111111111 ]
b1111111111111111111111111 c
b1111111111111111111111111 h
1!
#70000
0!
#75000
b11 ^
0%
b11 0
b11 S
b11 W
b11 1
b11 >
b11 A
b11 F
b11 T
b10 =
b10 @
b10 C
bx -
bx 4
bx G
bx q
bx :
bx D
1(
18
b10010100011000101 p
b101 i
b1001 m
b11 K
b11 V
b11 j
b1000 l
b110 2
b110 ?
b110011 5
b110011 B
b100101000110001010110011 $
b100101000110001010110011 ,
b100101000110001010110011 Q
b100101000110001010110011 t
b10000000000000000000000111 O
b10000000000000000000000111 f
b10000000000000000000000111 g
b11 s
b10000000000000000000000111 N
b10000000000000000000000111 b
b10000000000000000000000111 d
b10000000000000000000000011 R
b10000000000000000000000011 [
b10000000000000000000000011 e
b10000000000000000000000011 #
b10000000000000000000000011 *
b10000000000000000000000011 P
b10000000000000000000000011 ]
b10000000000000000000000011 c
b10000000000000000000000011 h
1!
#80000
0!
#85000
b11101 ^
b11 &
b11 I
b11 U
b11 X
b11 n
0%
b11111111111111111111111111111101 0
b11111111111111111111111111111101 S
b11111111111111111111111111111101 W
b1 1
b1 >
b1 A
b1 F
b1 T
b100000010000100100011101 p
b11101 i
b11 J
b11 Z
b11 _
b11 k
b1000 m
b0 K
b0 V
b0 j
b1001 l
13
b0 2
b0 ?
b1000000100001001000111010110011 $
b1000000100001001000111010110011 ,
b1000000100001001000111010110011 Q
b1000000100001001000111010110011 t
b10000000000000000000001011 O
b10000000000000000000001011 f
b10000000000000000000001011 g
b111 s
b10000000000000000000001011 N
b10000000000000000000001011 b
b10000000000000000000001011 d
b10000000000000000000000111 R
b10000000000000000000000111 [
b10000000000000000000000111 e
b10000000000000000000000111 #
b10000000000000000000000111 *
b10000000000000000000000111 P
b10000000000000000000000111 ]
b10000000000000000000000111 c
b10000000000000000000000111 h
1!
#90000
0!
#95000
b1 ^
0%
b1 0
b1 S
b1 W
b1 L
b1 Y
b1 \
b1 r
b1 &
b1 I
b1 U
b1 X
b1 n
b0 1
b0 >
b0 A
b0 F
b0 T
1/
1<
b0 =
b0 @
b0 C
b0 -
b0 4
b0 G
b0 q
b0 :
b0 D
1(
18
b10000000000101 p
b101 i
b0 J
b0 Z
b0 _
b0 k
b1 m
b0 l
03
b10011 5
b10011 B
b100000000001010010011 $
b100000000001010010011 ,
b100000000001010010011 Q
b100000000001010010011 t
b10000000000000000000001111 O
b10000000000000000000001111 f
b10000000000000000000001111 g
b1011 s
b10000000000000000000001111 N
b10000000000000000000001111 b
b10000000000000000000001111 d
b10000000000000000000001100 R
b10000000000000000000001100 [
b10000000000000000000001100 e
b10000000000000000000001011 #
b10000000000000000000001011 *
b10000000000000000000001011 P
b10000000000000000000001011 ]
b10000000000000000000001011 c
b10000000000000000000001011 h
1!
#100000
0!
#105000
b10011000000110 p
b110 i
b110 l
b100110000001100010011 $
b100110000001100010011 ,
b100110000001100010011 Q
b100110000001100010011 t
b10000000000000000000010011 O
b10000000000000000000010011 f
b10000000000000000000010011 g
b1111 s
b10000000000000000000010011 N
b10000000000000000000010011 b
b10000000000000000000010011 d
b10000000000000000000010000 R
b10000000000000000000010000 [
b10000000000000000000010000 e
b10000000000000000000001111 #
b10000000000000000000001111 *
b10000000000000000000001111 P
b10000000000000000000001111 ]
b10000000000000000000001111 c
b10000000000000000000001111 h
1!
#110000
0!
#115000
b1010 &
b1010 I
b1010 U
b1010 X
b1010 n
b1010 L
b1010 Y
b1010 \
b1010 r
b10100000000000110 p
b1010 m
b0 l
b1010 ^
b101000000000001100010011 $
b101000000000001100010011 ,
b101000000000001100010011 Q
b101000000000001100010011 t
b1010 0
b1010 S
b1010 W
b10000000000000000000010111 O
b10000000000000000000010111 f
b10000000000000000000010111 g
b10011 s
b0 K
b0 V
b0 j
b10000000000000000000010111 N
b10000000000000000000010111 b
b10000000000000000000010111 d
b10000000000000000000011101 R
b10000000000000000000011101 [
b10000000000000000000011101 e
b10000000000000000000010011 #
b10000000000000000000010011 *
b10000000000000000000010011 P
b10000000000000000000010011 ]
b10000000000000000000010011 c
b10000000000000000000010011 h
1!
#120000
0!
#125000
1)
b0 ^
1%
b0 0
b0 S
b0 W
b0 &
b0 I
b0 U
b0 X
b0 n
b1111111111111111111101011 L
b1111111111111111111101011 Y
b1111111111111111111101011 \
b1111111111111111111101011 r
1.
1;
b10 '
b10 6
b10 H
b10 7
b10 E
b11 -
b11 4
b11 G
b11 q
b11 :
b11 D
0/
0<
1(
18
b1111111101011111111100000 p
b0 i
b10101 m
b11111 l
13
b111 2
b111 ?
b1101111 5
b1101111 B
b11111111010111111111000001101111 $
b11111111010111111111000001101111 ,
b11111111010111111111000001101111 Q
b11111111010111111111000001101111 t
b100000000000000000000000010 O
b100000000000000000000000010 f
b100000000000000000000000010 g
b10111 s
b10000000000000000000011011 N
b10000000000000000000011011 b
b10000000000000000000011011 d
b100000000000000000000000010 R
b100000000000000000000000010 [
b100000000000000000000000010 e
b10000000000000000000010111 #
b10000000000000000000010111 *
b10000000000000000000010111 P
b10000000000000000000010111 ]
b10000000000000000000010111 c
b10000000000000000000010111 h
1!
#130000
0!
#135000
b10000 ^
0%
b10000 0
b10000 S
b10000 W
b10000 &
b10000 I
b10000 U
b10000 X
b10000 n
0)
b10000 L
b10000 Y
b10000 \
b10000 r
1/
1<
0.
0;
b0 '
b0 6
b0 H
b0 7
b0 E
b0 -
b0 4
b0 G
b0 q
b0 :
b0 D
1(
18
b100000000000010010 p
b10010 i
b10000 m
b0 l
03
b0 2
b0 ?
b10011 5
b10011 B
b1000000000000100100010011 $
b1000000000000100100010011 ,
b1000000000000100100010011 Q
b1000000000000100100010011 t
b100000000000000000000000110 O
b100000000000000000000000110 f
b100000000000000000000000110 g
b10 s
b100000000000000000000000110 N
b100000000000000000000000110 b
b100000000000000000000000110 d
b100000000000000000000010010 R
b100000000000000000000010010 [
b100000000000000000000010010 e
b100000000000000000000000010 #
b100000000000000000000000010 *
b100000000000000000000000010 P
b100000000000000000000000010 ]
b100000000000000000000000010 c
b100000000000000000000000010 h
1!
#140000
0!
#145000
b11 ^
b0 &
b0 I
b0 U
b0 X
b0 n
b0 L
b0 Y
b0 \
b0 r
b11 0
b11 S
b11 W
b1 1
b1 >
b1 A
b1 F
b1 T
b10 =
b10 @
b10 C
bx -
bx 4
bx G
bx q
bx :
bx D
0/
0<
1(
18
b100000010010100000011100 p
b11100 i
b1001 m
b11 K
b11 V
b11 j
b1000 l
13
b110011 5
b110011 B
b1000000100101000000111000110011 $
b1000000100101000000111000110011 ,
b1000000100101000000111000110011 Q
b1000000100101000000111000110011 t
b100000000000000000000001010 O
b100000000000000000000001010 f
b100000000000000000000001010 g
b110 s
b100000000000000000000001010 N
b100000000000000000000001010 b
b100000000000000000000001010 d
b100000000000000000000000110 R
b100000000000000000000000110 [
b100000000000000000000000110 e
b100000000000000000000000110 #
b100000000000000000000000110 *
b100000000000000000000000110 P
b100000000000000000000000110 ]
b100000000000000000000000110 c
b100000000000000000000000110 h
1!
#150000
0!
#155000
b1 ^
b11 &
b11 I
b11 U
b11 X
b11 n
0%
b1 0
b1 S
b1 W
b100 1
b100 >
b100 A
b100 F
b100 T
b111010100101011111 p
b11111 i
b11 J
b11 Z
b11 _
b11 k
b11101 m
b0 K
b0 V
b0 j
b1001 l
03
b10 2
b10 ?
b1110101001010111110110011 $
b1110101001010111110110011 ,
b1110101001010111110110011 Q
b1110101001010111110110011 t
b100000000000000000000001110 O
b100000000000000000000001110 f
b100000000000000000000001110 g
b1010 s
b100000000000000000000001110 N
b100000000000000000000001110 b
b100000000000000000000001110 d
b100000000000000000000001010 R
b100000000000000000000001010 [
b100000000000000000000001010 e
b100000000000000000000001010 #
b100000000000000000000001010 *
b100000000000000000000001010 P
b100000000000000000000001010 ]
b100000000000000000000001010 c
b100000000000000000000001010 h
1!
#160000
0!
#165000
b10 ^
b1 &
b1 I
b1 U
b1 X
b1 n
b10 0
b10 S
b10 W
b0 1
b0 >
b0 A
b0 F
b0 T
b1010010100000101 p
b101 i
b1 J
b1 Z
b1 _
b1 k
b101 m
b1 K
b1 V
b1 j
b101 l
b0 2
b0 ?
b10100101000001010110011 $
b10100101000001010110011 ,
b10100101000001010110011 Q
b10100101000001010110011 t
b100000000000000000000010010 O
b100000000000000000000010010 f
b100000000000000000000010010 g
b1110 s
b100000000000000000000010010 N
b100000000000000000000010010 b
b100000000000000000000010010 d
b100000000000000000000001110 R
b100000000000000000000001110 [
b100000000000000000000001110 e
b100000000000000000000001110 #
b100000000000000000000001110 *
b100000000000000000000001110 P
b100000000000000000000001110 ]
b100000000000000000000001110 c
b100000000000000000000001110 h
1!
#170000
0!
#175000
1%
b0 ^
b0 &
b0 I
b0 U
b0 X
b0 n
b0 0
b0 S
b0 W
1/
1<
b0 =
b0 @
b0 C
b0 -
b0 4
b0 G
b0 q
b0 :
b0 D
1(
18
b101 p
b0 J
b0 Z
b0 _
b0 k
b0 m
b0 K
b0 V
b0 j
b0 l
b10011 5
b10011 B
b1010010011 $
b1010010011 ,
b1010010011 Q
b1010010011 t
b100000000000000000000010110 O
b100000000000000000000010110 f
b100000000000000000000010110 g
b10010 s
b100000000000000000000010110 N
b100000000000000000000010110 b
b100000000000000000000010110 d
b100000000000000000000010010 R
b100000000000000000000010010 [
b100000000000000000000010010 e
b100000000000000000000010010 #
b100000000000000000000010010 *
b100000000000000000000010010 P
b100000000000000000000010010 ]
b100000000000000000000010010 c
b100000000000000000000010010 h
1!
#180000
0!
#185000
b1 ^
0%
b1 0
b1 S
b1 W
b1 &
b1 I
b1 U
b1 X
b1 n
b1 L
b1 Y
b1 \
b1 r
b10010100000101 p
b1 m
b101 l
b100101000001010010011 $
b100101000001010010011 ,
b100101000001010010011 Q
b100101000001010010011 t
b100000000000000000000011010 O
b100000000000000000000011010 f
b100000000000000000000011010 g
b10110 s
b100000000000000000000011010 N
b100000000000000000000011010 b
b100000000000000000000011010 d
b100000000000000000000010111 R
b100000000000000000000010111 [
b100000000000000000000010111 e
b100000000000000000000010110 #
b100000000000000000000010110 *
b100000000000000000000010110 P
b100000000000000000000010110 ]
b100000000000000000000010110 c
b100000000000000000000010110 h
1!
#190000
0!
#195000
bx '
bx 6
bx H
bx 7
bx E
1+
19
b1 -
b1 4
b1 G
b1 q
b1 :
b1 D
1/
1<
0(
08
b100100000001001000 p
b1000 i
b10000 J
b10000 Z
b10000 _
b10000 k
b10010 m
b0 l
b10 2
b10 ?
b100011 5
b100011 B
b1 ^
b1001000000010010000100011 $
b1001000000010010000100011 ,
b1001000000010010000100011 Q
b1001000000010010000100011 t
b1 0
b1 S
b1 W
b100000000000000000000011110 O
b100000000000000000000011110 f
b100000000000000000000011110 g
b11010 s
b0 K
b0 V
b0 j
b100000000000000000000011110 N
b100000000000000000000011110 b
b100000000000000000000011110 d
b100000000000000000000011011 R
b100000000000000000000011011 [
b100000000000000000000011011 e
b100000000000000000000011010 #
b100000000000000000000011010 *
b100000000000000000000011010 P
b100000000000000000000011010 ]
b100000000000000000000011010 c
b100000000000000000000011010 h
1!
#200000
0!
#205000
b0 ^
1%
b0 0
b0 S
b0 W
b0 &
b0 I
b0 U
b0 X
b0 n
b0 L
b0 Y
b0 \
b0 r
b0 '
b0 6
b0 H
b0 7
b0 E
0+
09
0/
0<
b0 -
b0 4
b0 G
b0 q
b0 :
b0 D
b0 p
b0 i
b0 J
b0 Z
b0 _
b0 k
b0 m
b0 2
b0 ?
b0 5
b0 B
b0 $
b0 ,
b0 Q
b0 t
bx M
bx `
b100000000000000000000100010 O
b100000000000000000000100010 f
b100000000000000000000100010 g
b11110 s
b100000000000000000000100010 N
b100000000000000000000100010 b
b100000000000000000000100010 d
b100000000000000000000011110 R
b100000000000000000000011110 [
b100000000000000000000011110 e
b100000000000000000000011110 #
b100000000000000000000011110 *
b100000000000000000000011110 P
b100000000000000000000011110 ]
b100000000000000000000011110 c
b100000000000000000000011110 h
1!
#210000
0!
#215000
b10000 ^
0%
b10000 0
b10000 S
b10000 W
b10000 &
b10000 I
b10000 U
b10000 X
b10000 n
b10000 L
b10000 Y
b10000 \
b10000 r
1/
1<
1(
18
b100000000000010010 p
b10010 i
b10000 m
b10011 5
b10011 B
b1000000000000100100010011 $
b1000000000000100100010011 ,
b1000000000000100100010011 Q
b1000000000000100100010011 t
b100000000000000000000100110 O
b100000000000000000000100110 f
b100000000000000000000100110 g
b10 s
b100000000000000000000100110 N
b100000000000000000000100110 b
b100000000000000000000100110 d
b100000000000000000000110010 R
b100000000000000000000110010 [
b100000000000000000000110010 e
b100000000000000000000100010 #
b100000000000000000000100010 *
b100000000000000000000100010 P
b100000000000000000000100010 ]
b100000000000000000000100010 c
b100000000000000000000100010 h
1!
#220000
0!
#225000
b11 ^
b0 &
b0 I
b0 U
b0 X
b0 n
b0 L
b0 Y
b0 \
b0 r
b11 0
b11 S
b11 W
b1 1
b1 >
b1 A
b1 F
b1 T
b10 =
b10 @
b10 C
bx -
bx 4
bx G
bx q
bx :
bx D
0/
0<
1(
18
b100000010010100000011100 p
b11100 i
b1001 m
b11 K
b11 V
b11 j
b1000 l
13
b110011 5
b110011 B
b1000000100101000000111000110011 $
b1000000100101000000111000110011 ,
b1000000100101000000111000110011 Q
b1000000100101000000111000110011 t
b100000000000000000000101010 O
b100000000000000000000101010 f
b100000000000000000000101010 g
b110 s
b100000000000000000000101010 N
b100000000000000000000101010 b
b100000000000000000000101010 d
b100000000000000000000100110 R
b100000000000000000000100110 [
b100000000000000000000100110 e
b100000000000000000000100110 #
b100000000000000000000100110 *
b100000000000000000000100110 P
b100000000000000000000100110 ]
b100000000000000000000100110 c
b100000000000000000000100110 h
1!
#230000
0!
#235000
b10000 M
b10000 `
b1 ^
b11 &
b11 I
b11 U
b11 X
b11 n
0%
b1 0
b1 S
b1 W
b100 1
b100 >
b100 A
b100 F
b100 T
b111010100101011111 p
b11111 i
b11 J
b11 Z
b11 _
b11 k
b11101 m
b0 K
b0 V
b0 j
b1001 l
03
b10 2
b10 ?
b1110101001010111110110011 $
b1110101001010111110110011 ,
b1110101001010111110110011 Q
b1110101001010111110110011 t
b100000000000000000000101110 O
b100000000000000000000101110 f
b100000000000000000000101110 g
b1010 s
b100000000000000000000101110 N
b100000000000000000000101110 b
b100000000000000000000101110 d
b100000000000000000000101010 R
b100000000000000000000101010 [
b100000000000000000000101010 e
b100000000000000000000101010 #
b100000000000000000000101010 *
b100000000000000000000101010 P
b100000000000000000000101010 ]
b100000000000000000000101010 c
b100000000000000000000101010 h
1!
#240000
0!
#245000
bx M
bx `
b10 ^
b1 &
b1 I
b1 U
b1 X
b1 n
b10 0
b10 S
b10 W
b0 1
b0 >
b0 A
b0 F
b0 T
b1010010100000101 p
b101 i
b1 J
b1 Z
b1 _
b1 k
b101 m
b1 K
b1 V
b1 j
b101 l
b0 2
b0 ?
b10100101000001010110011 $
b10100101000001010110011 ,
b10100101000001010110011 Q
b10100101000001010110011 t
b100000000000000000000110010 O
b100000000000000000000110010 f
b100000000000000000000110010 g
b1110 s
b100000000000000000000110010 N
b100000000000000000000110010 b
b100000000000000000000110010 d
b100000000000000000000101110 R
b100000000000000000000101110 [
b100000000000000000000101110 e
b100000000000000000000101110 #
b100000000000000000000101110 *
b100000000000000000000101110 P
b100000000000000000000101110 ]
b100000000000000000000101110 c
b100000000000000000000101110 h
1!
#250000
0!
#255000
bx M
bx `
1%
b0 ^
b0 &
b0 I
b0 U
b0 X
b0 n
b0 0
b0 S
b0 W
1/
1<
b0 =
b0 @
b0 C
b0 -
b0 4
b0 G
b0 q
b0 :
b0 D
1(
18
b101 p
b0 J
b0 Z
b0 _
b0 k
b0 m
b0 K
b0 V
b0 j
b0 l
b10011 5
b10011 B
b1010010011 $
b1010010011 ,
b1010010011 Q
b1010010011 t
b100000000000000000000110110 O
b100000000000000000000110110 f
b100000000000000000000110110 g
b10010 s
b100000000000000000000110110 N
b100000000000000000000110110 b
b100000000000000000000110110 d
b100000000000000000000110010 R
b100000000000000000000110010 [
b100000000000000000000110010 e
b100000000000000000000110010 #
b100000000000000000000110010 *
b100000000000000000000110010 P
b100000000000000000000110010 ]
b100000000000000000000110010 c
b100000000000000000000110010 h
1!
#260000
0!
#265000
b10000 M
b10000 `
b1 ^
0%
b1 0
b1 S
b1 W
b1 &
b1 I
b1 U
b1 X
b1 n
b1 L
b1 Y
b1 \
b1 r
b10010100000101 p
b1 m
b101 l
b100101000001010010011 $
b100101000001010010011 ,
b100101000001010010011 Q
b100101000001010010011 t
b100000000000000000000111010 O
b100000000000000000000111010 f
b100000000000000000000111010 g
b10110 s
b100000000000000000000111010 N
b100000000000000000000111010 b
b100000000000000000000111010 d
b100000000000000000000110111 R
b100000000000000000000110111 [
b100000000000000000000110111 e
b100000000000000000000110110 #
b100000000000000000000110110 *
b100000000000000000000110110 P
b100000000000000000000110110 ]
b100000000000000000000110110 c
b100000000000000000000110110 h
1!
#270000
0!
#275000
bx '
bx 6
bx H
bx 7
bx E
1+
19
b1 -
b1 4
b1 G
b1 q
b1 :
b1 D
1/
1<
0(
08
b10000 M
b10000 `
b100100000001001000 p
b1000 i
b10000 J
b10000 Z
b10000 _
b10000 k
b10010 m
b0 l
b10 2
b10 ?
b100011 5
b100011 B
b1 ^
b1001000000010010000100011 $
b1001000000010010000100011 ,
b1001000000010010000100011 Q
b1001000000010010000100011 t
b1 0
b1 S
b1 W
b100000000000000000000111110 O
b100000000000000000000111110 f
b100000000000000000000111110 g
b11010 s
b0 K
b0 V
b0 j
b100000000000000000000111110 N
b100000000000000000000111110 b
b100000000000000000000111110 d
b100000000000000000000111011 R
b100000000000000000000111011 [
b100000000000000000000111011 e
b100000000000000000000111010 #
b100000000000000000000111010 *
b100000000000000000000111010 P
b100000000000000000000111010 ]
b100000000000000000000111010 c
b100000000000000000000111010 h
1!
#280000
0!
#285000
bx M
bx `
b0 ^
1%
b0 0
b0 S
b0 W
b0 &
b0 I
b0 U
b0 X
b0 n
b0 L
b0 Y
b0 \
b0 r
b0 '
b0 6
b0 H
b0 7
b0 E
0+
09
0/
0<
b0 -
b0 4
b0 G
b0 q
b0 :
b0 D
b0 p
b0 i
b0 J
b0 Z
b0 _
b0 k
b0 m
b0 2
b0 ?
b0 5
b0 B
b0 $
b0 ,
b0 Q
b0 t
b100000000000000000001000010 O
b100000000000000000001000010 f
b100000000000000000001000010 g
b11110 s
b100000000000000000001000010 N
b100000000000000000001000010 b
b100000000000000000001000010 d
b100000000000000000000111110 R
b100000000000000000000111110 [
b100000000000000000000111110 e
b100000000000000000000111110 #
b100000000000000000000111110 *
b100000000000000000000111110 P
b100000000000000000000111110 ]
b100000000000000000000111110 c
b100000000000000000000111110 h
1!
#290000
0!
#295000
b10000 ^
0%
b10000 0
b10000 S
b10000 W
b10000 &
b10000 I
b10000 U
b10000 X
b10000 n
b10000 L
b10000 Y
b10000 \
b10000 r
1/
1<
1(
18
b100000000000010010 p
b10010 i
b10000 m
b10011 5
b10011 B
b1000000000000100100010011 $
b1000000000000100100010011 ,
b1000000000000100100010011 Q
b1000000000000100100010011 t
b100000000000000000001000110 O
b100000000000000000001000110 f
b100000000000000000001000110 g
b10 s
b100000000000000000001000110 N
b100000000000000000001000110 b
b100000000000000000001000110 d
b100000000000000000001010010 R
b100000000000000000001010010 [
b100000000000000000001010010 e
b100000000000000000001000010 #
b100000000000000000001000010 *
b100000000000000000001000010 P
b100000000000000000001000010 ]
b100000000000000000001000010 c
b100000000000000000001000010 h
1!
#300000
0!
